ex1_nmr/paramagnetic_data/TEK0082.CSV

Record Length,2.500000e+03,,   0.037800000000,  -0.00040,
Sample Interval,4.000000e-06,,   0.037804000000,  -0.00040,
Trigger Point,-9.450000000000e+03,,   0.037808000000,  -0.00020,
,,,   0.037812000000,  -0.00040,
,,,   0.037816000000,  -0.00040,
,,,   0.037820000000,  -0.00040,
Source,CH2,,   0.037824000000,  -0.00040,
Vertical Units,V,,   0.037828000000,  -0.00020,
Vertical Scale,5.000000e-03,,   0.037832000000,  -0.00020,
Vertical Offset,0.000000e+00,,   0.037836000000,   0.00000,
Horizontal Units,s,,   0.037840000000,  -0.00040,
Horizontal Scale,1.000000e-03,,   0.037844000000,   0.00000,
Pt Fmt,Y,,   0.037848000000,  -0.00040,
Yzero,0.000000e+00,,   0.037852000000,  -0.00060,
Probe Atten,1.000000e+00,,   0.037856000000,  -0.00020,
Model Number,TDS2014C,,   0.037860000000,  -0.00060,
Serial Number,C031611,,   0.037864000000,  -0.00040,
Firmware Version,FV:v24.26,,   0.037868000000,  -0.00060,
,,,0.037872000000,   0.00000,
,,,0.037876000000,  -0.00020,
,,,0.037880000000,  -0.00040,
,,,0.037884000000,  -0.00020,
,,,0.037888000000,   0.00000,
,,,0.037892000000,  -0.00040,
,,,0.037896000000,  -0.00040,
,,,0.037900000000,  -0.00040,
,,,0.037904000000,  -0.00040,
,,,0.037908000000,  -0.00040,
,,,0.037912000000,   0.00000,
,,,0.037916000000,  -0.00020,
,,,0.037920000000,  -0.00020,
,,,0.037924000000,   0.00000,
,,,0.037928000000,  -0.00020,
,,,0.037932000000,  -0.00020,
,,,0.037936000000,  -0.00040,
,,,0.037940000000,  -0.00020,
,,,0.037944000000,  -0.00020,
,,,0.037948000000,  -0.00020,
,,,0.037952000000,  -0.00020,
,,,0.037956000000,  -0.00040,
,,,0.037960000000,   0.00000,
,,,0.037964000000,  -0.00020,
,,,0.037968000000,   0.00000,
,,,0.037972000000,  -0.00020,
,,,0.037976000000,  -0.00020,
,,,0.037980000000,  -0.00040,
,,,0.037984000000,  -0.00020,
,,,0.037988000000,  -0.00040,
,,,0.037992000000,  -0.00040,
,,,0.037996000000,  -0.00020,
,,,0.038000000000,  -0.00020,
,,,0.038004000000,   0.00000,
,,,0.038008000000,  -0.00020,
,,,0.038012000000,  -0.00040,
,,,0.038016000000,  -0.00020,
,,,0.038020000000,  -0.00020,
,,,0.038024000000,  -0.00020,
,,,0.038028000000,  -0.00020,
,,,0.038032000000,  -0.00020,
,,,0.038036000000,  -0.00020,
,,,0.038040000000,  -0.00060,
,,,0.038044000000,  -0.00020,
,,,0.038048000000,  -0.00040,
,,,0.038052000000,   0.00000,
,,,0.038056000000,  -0.00060,
,,,0.038060000000,   0.00000,
,,,0.038064000000,   0.00020,
,,,0.038068000000,  -0.00020,
,,,0.038072000000,  -0.00040,
,,,0.038076000000,  -0.00040,
,,,0.038080000000,  -0.00020,
,,,0.038084000000,  -0.00020,
,,,0.038088000000,  -0.00020,
,,,0.038092000000,  -0.00020,
,,,0.038096000000,  -0.00020,
,,,0.038100000000,   0.00000,
,,,0.038104000000,  -0.00020,
,,,0.038108000000,  -0.00020,
,,,0.038112000000,  -0.00020,
,,,0.038116000000,  -0.00020,
,,,0.038120000000,  -0.00020,
,,,0.038124000000,  -0.00020,
,,,0.038128000000,  -0.00020,
,,,0.038132000000,  -0.00040,
,,,0.038136000000,  -0.00020,
,,,0.038140000000,  -0.00020,
,,,0.038144000000,  -0.00040,
,,,0.038148000000,  -0.00040,
,,,0.038152000000,  -0.00020,
,,,0.038156000000,  -0.00020,
,,,0.038160000000,  -0.00040,
,,,0.038164000000,  -0.00020,
,,,0.038168000000,  -0.00020,
,,,0.038172000000,   0.00000,
,,,0.038176000000,  -0.00020,
,,,0.038180000000,  -0.00040,
,,,0.038184000000,  -0.00020,
,,,0.038188000000,   0.00000,
,,,0.038192000000,  -0.00040,
,,,0.038196000000,  -0.00020,
,,,0.038200000000,  -0.00020,
,,,0.038204000000,  -0.00060,
,,,0.038208000000,  -0.00040,
,,,0.038212000000,  -0.00020,
,,,0.038216000000,  -0.00020,
,,,0.038220000000,   0.00000,
,,,0.038224000000,  -0.00020,
,,,0.038228000000,  -0.00060,
,,,0.038232000000,  -0.00020,
,,,0.038236000000,  -0.00040,
,,,0.038240000000,  -0.00020,
,,,0.038244000000,   0.00000,
,,,0.038248000000,  -0.00020,
,,,0.038252000000,  -0.00040,
,,,0.038256000000,  -0.00020,
,,,0.038260000000,  -0.00020,
,,,0.038264000000,  -0.00020,
,,,0.038268000000,  -0.00060,
,,,0.038272000000,   0.00020,
,,,0.038276000000,  -0.00040,
,,,0.038280000000,  -0.00020,
,,,0.038284000000,  -0.00060,
,,,0.038288000000,  -0.00020,
,,,0.038292000000,   0.00000,
,,,0.038296000000,  -0.00040,
,,,0.038300000000,  -0.00020,
,,,0.038304000000,  -0.00040,
,,,0.038308000000,  -0.00060,
,,,0.038312000000,  -0.00020,
,,,0.038316000000,  -0.00040,
,,,0.038320000000,  -0.00020,
,,,0.038324000000,  -0.00020,
,,,0.038328000000,   0.00000,
,,,0.038332000000,  -0.00020,
,,,0.038336000000,  -0.00020,
,,,0.038340000000,  -0.00020,
,,,0.038344000000,  -0.00020,
,,,0.038348000000,  -0.00020,
,,,0.038352000000,  -0.00040,
,,,0.038356000000,  -0.00040,
,,,0.038360000000,   0.00000,
,,,0.038364000000,  -0.00040,
,,,0.038368000000,   0.00000,
,,,0.038372000000,  -0.00020,
,,,0.038376000000,   0.00000,
,,,0.038380000000,  -0.00020,
,,,0.038384000000,  -0.00060,
,,,0.038388000000,  -0.00020,
,,,0.038392000000,  -0.00020,
,,,0.038396000000,  -0.00020,
,,,0.038400000000,  -0.00020,
,,,0.038404000000,  -0.00040,
,,,0.038408000000,  -0.00060,
,,,0.038412000000,  -0.00020,
,,,0.038416000000,  -0.00020,
,,,0.038420000000,  -0.00060,
,,,0.038424000000,   0.00000,
,,,0.038428000000,   0.00000,
,,,0.038432000000,  -0.00020,
,,,0.038436000000,  -0.00040,
,,,0.038440000000,  -0.00020,
,,,0.038444000000,   0.00000,
,,,0.038448000000,   0.00000,
,,,0.038452000000,   0.00000,
,,,0.038456000000,  -0.00020,
,,,0.038460000000,  -0.00060,
,,,0.038464000000,  -0.00040,
,,,0.038468000000,  -0.00060,
,,,0.038472000000,  -0.00040,
,,,0.038476000000,  -0.00020,
,,,0.038480000000,  -0.00040,
,,,0.038484000000,  -0.00020,
,,,0.038488000000,  -0.00020,
,,,0.038492000000,  -0.00020,
,,,0.038496000000,  -0.00020,
,,,0.038500000000,  -0.00020,
,,,0.038504000000,  -0.00020,
,,,0.038508000000,  -0.00040,
,,,0.038512000000,  -0.00040,
,,,0.038516000000,  -0.00040,
,,,0.038520000000,  -0.00020,
,,,0.038524000000,  -0.00040,
,,,0.038528000000,   0.00020,
,,,0.038532000000,  -0.00020,
,,,0.038536000000,   0.00000,
,,,0.038540000000,  -0.00040,
,,,0.038544000000,  -0.00020,
,,,0.038548000000,  -0.00020,
,,,0.038552000000,   0.00000,
,,,0.038556000000,  -0.00020,
,,,0.038560000000,  -0.00040,
,,,0.038564000000,  -0.00020,
,,,0.038568000000,  -0.00020,
,,,0.038572000000,   0.00000,
,,,0.038576000000,  -0.00040,
,,,0.038580000000,  -0.00020,
,,,0.038584000000,  -0.00040,
,,,0.038588000000,  -0.00020,
,,,0.038592000000,  -0.00020,
,,,0.038596000000,  -0.00020,
,,,0.038600000000,  -0.00020,
,,,0.038604000000,   0.00020,
,,,0.038608000000,  -0.00020,
,,,0.038612000000,  -0.00040,
,,,0.038616000000,  -0.00040,
,,,0.038620000000,  -0.00020,
,,,0.038624000000,  -0.00040,
,,,0.038628000000,  -0.00040,
,,,0.038632000000,  -0.00020,
,,,0.038636000000,  -0.00020,
,,,0.038640000000,   0.00020,
,,,0.038644000000,  -0.00020,
,,,0.038648000000,   0.00000,
,,,0.038652000000,   0.00000,
,,,0.038656000000,  -0.00020,
,,,0.038660000000,  -0.00020,
,,,0.038664000000,   0.00000,
,,,0.038668000000,  -0.00020,
,,,0.038672000000,  -0.00020,
,,,0.038676000000,  -0.00020,
,,,0.038680000000,  -0.00020,
,,,0.038684000000,  -0.00020,
,,,0.038688000000,  -0.00040,
,,,0.038692000000,  -0.00020,
,,,0.038696000000,  -0.00040,
,,,0.038700000000,  -0.00040,
,,,0.038704000000,  -0.00020,
,,,0.038708000000,  -0.00060,
,,,0.038712000000,  -0.00040,
,,,0.038716000000,  -0.00040,
,,,0.038720000000,  -0.00040,
,,,0.038724000000,  -0.00020,
,,,0.038728000000,  -0.00040,
,,,0.038732000000,  -0.00020,
,,,0.038736000000,  -0.00040,
,,,0.038740000000,  -0.00020,
,,,0.038744000000,  -0.00020,
,,,0.038748000000,  -0.00020,
,,,0.038752000000,  -0.00020,
,,,0.038756000000,  -0.00020,
,,,0.038760000000,  -0.00020,
,,,0.038764000000,  -0.00020,
,,,0.038768000000,   0.00000,
,,,0.038772000000,  -0.00040,
,,,0.038776000000,   0.00000,
,,,0.038780000000,   0.00000,
,,,0.038784000000,  -0.00040,
,,,0.038788000000,  -0.00020,
,,,0.038792000000,  -0.00040,
,,,0.038796000000,  -0.00040,
,,,0.038800000000,  -0.00040,
,,,0.038804000000,  -0.00020,
,,,0.038808000000,  -0.00020,
,,,0.038812000000,  -0.00040,
,,,0.038816000000,   0.00000,
,,,0.038820000000,  -0.00020,
,,,0.038824000000,  -0.00020,
,,,0.038828000000,  -0.00020,
,,,0.038832000000,  -0.00020,
,,,0.038836000000,  -0.00020,
,,,0.038840000000,  -0.00020,
,,,0.038844000000,  -0.00040,
,,,0.038848000000,  -0.00040,
,,,0.038852000000,  -0.00020,
,,,0.038856000000,  -0.00020,
,,,0.038860000000,  -0.00040,
,,,0.038864000000,   0.00000,
,,,0.038868000000,  -0.00020,
,,,0.038872000000,  -0.00020,
,,,0.038876000000,   0.00020,
,,,0.038880000000,  -0.00040,
,,,0.038884000000,  -0.00040,
,,,0.038888000000,  -0.00040,
,,,0.038892000000,  -0.00040,
,,,0.038896000000,  -0.00020,
,,,0.038900000000,  -0.00020,
,,,0.038904000000,  -0.00020,
,,,0.038908000000,  -0.00020,
,,,0.038912000000,  -0.00020,
,,,0.038916000000,  -0.00020,
,,,0.038920000000,  -0.00020,
,,,0.038924000000,  -0.00020,
,,,0.038928000000,  -0.00020,
,,,0.038932000000,  -0.00020,
,,,0.038936000000,  -0.00020,
,,,0.038940000000,  -0.00060,
,,,0.038944000000,  -0.00040,
,,,0.038948000000,  -0.00020,
,,,0.038952000000,   0.00000,
,,,0.038956000000,   0.00000,
,,,0.038960000000,  -0.00020,
,,,0.038964000000,  -0.00040,
,,,0.038968000000,  -0.00040,
,,,0.038972000000,  -0.00040,
,,,0.038976000000,  -0.00020,
,,,0.038980000000,   0.00000,
,,,0.038984000000,  -0.00020,
,,,0.038988000000,   0.00000,
,,,0.038992000000,  -0.00020,
,,,0.038996000000,   0.00020,
,,,0.039000000000,   0.00000,
,,,0.039004000000,   0.00000,
,,,0.039008000000,  -0.00020,
,,,0.039012000000,  -0.00020,
,,,0.039016000000,  -0.00020,
,,,0.039020000000,   0.00000,
,,,0.039024000000,  -0.00020,
,,,0.039028000000,   0.00000,
,,,0.039032000000,   0.00000,
,,,0.039036000000,  -0.00060,
,,,0.039040000000,  -0.00020,
,,,0.039044000000,  -0.00020,
,,,0.039048000000,  -0.00060,
,,,0.039052000000,  -0.00060,
,,,0.039056000000,  -0.00040,
,,,0.039060000000,  -0.00040,
,,,0.039064000000,   0.00000,
,,,0.039068000000,  -0.00020,
,,,0.039072000000,  -0.00040,
,,,0.039076000000,  -0.00040,
,,,0.039080000000,  -0.00020,
,,,0.039084000000,  -0.00020,
,,,0.039088000000,  -0.00040,
,,,0.039092000000,  -0.00020,
,,,0.039096000000,  -0.00020,
,,,0.039100000000,  -0.00040,
,,,0.039104000000,  -0.00040,
,,,0.039108000000,   0.00000,
,,,0.039112000000,  -0.00020,
,,,0.039116000000,   0.00000,
,,,0.039120000000,   0.00000,
,,,0.039124000000,  -0.00020,
,,,0.039128000000,  -0.00040,
,,,0.039132000000,   0.00000,
,,,0.039136000000,  -0.00020,
,,,0.039140000000,  -0.00020,
,,,0.039144000000,  -0.00020,
,,,0.039148000000,  -0.00020,
,,,0.039152000000,  -0.00020,
,,,0.039156000000,  -0.00040,
,,,0.039160000000,  -0.00020,
,,,0.039164000000,  -0.00020,
,,,0.039168000000,  -0.00020,
,,,0.039172000000,  -0.00020,
,,,0.039176000000,  -0.00060,
,,,0.039180000000,  -0.00020,
,,,0.039184000000,  -0.00020,
,,,0.039188000000,   0.00000,
,,,0.039192000000,  -0.00040,
,,,0.039196000000,  -0.00040,
,,,0.039200000000,  -0.00040,
,,,0.039204000000,   0.00000,
,,,0.039208000000,  -0.00040,
,,,0.039212000000,   0.00000,
,,,0.039216000000,  -0.00020,
,,,0.039220000000,  -0.00040,
,,,0.039224000000,  -0.00040,
,,,0.039228000000,  -0.00040,
,,,0.039232000000,  -0.00020,
,,,0.039236000000,  -0.00040,
,,,0.039240000000,  -0.00020,
,,,0.039244000000,  -0.00040,
,,,0.039248000000,  -0.00020,
,,,0.039252000000,  -0.00040,
,,,0.039256000000,  -0.00040,
,,,0.039260000000,  -0.00020,
,,,0.039264000000,   0.00000,
,,,0.039268000000,  -0.00040,
,,,0.039272000000,  -0.00020,
,,,0.039276000000,  -0.00020,
,,,0.039280000000,  -0.00040,
,,,0.039284000000,  -0.00020,
,,,0.039288000000,  -0.00020,
,,,0.039292000000,  -0.00040,
,,,0.039296000000,  -0.00020,
,,,0.039300000000,  -0.00060,
,,,0.039304000000,   0.00000,
,,,0.039308000000,  -0.00040,
,,,0.039312000000,  -0.00060,
,,,0.039316000000,  -0.00040,
,,,0.039320000000,   0.00000,
,,,0.039324000000,  -0.00020,
,,,0.039328000000,  -0.00020,
,,,0.039332000000,  -0.00020,
,,,0.039336000000,  -0.00020,
,,,0.039340000000,   0.00000,
,,,0.039344000000,  -0.00020,
,,,0.039348000000,  -0.00060,
,,,0.039352000000,  -0.00040,
,,,0.039356000000,  -0.00020,
,,,0.039360000000,  -0.00020,
,,,0.039364000000,  -0.00040,
,,,0.039368000000,   0.00000,
,,,0.039372000000,  -0.00040,
,,,0.039376000000,  -0.00020,
,,,0.039380000000,  -0.00060,
,,,0.039384000000,  -0.00040,
,,,0.039388000000,  -0.00020,
,,,0.039392000000,   0.00000,
,,,0.039396000000,  -0.00060,
,,,0.039400000000,  -0.00020,
,,,0.039404000000,  -0.00040,
,,,0.039408000000,   0.00000,
,,,0.039412000000,  -0.00020,
,,,0.039416000000,  -0.00040,
,,,0.039420000000,  -0.00040,
,,,0.039424000000,  -0.00020,
,,,0.039428000000,   0.00000,
,,,0.039432000000,   0.00000,
,,,0.039436000000,   0.00000,
,,,0.039440000000,   0.00000,
,,,0.039444000000,  -0.00020,
,,,0.039448000000,  -0.00020,
,,,0.039452000000,  -0.00020,
,,,0.039456000000,   0.00020,
,,,0.039460000000,  -0.00040,
,,,0.039464000000,  -0.00040,
,,,0.039468000000,   0.00000,
,,,0.039472000000,  -0.00020,
,,,0.039476000000,  -0.00020,
,,,0.039480000000,  -0.00020,
,,,0.039484000000,   0.00000,
,,,0.039488000000,  -0.00040,
,,,0.039492000000,  -0.00020,
,,,0.039496000000,  -0.00020,
,,,0.039500000000,  -0.00040,
,,,0.039504000000,  -0.00040,
,,,0.039508000000,  -0.00020,
,,,0.039512000000,   0.00000,
,,,0.039516000000,   0.00000,
,,,0.039520000000,  -0.00020,
,,,0.039524000000,  -0.00020,
,,,0.039528000000,  -0.00020,
,,,0.039532000000,  -0.00020,
,,,0.039536000000,  -0.00020,
,,,0.039540000000,  -0.00040,
,,,0.039544000000,  -0.00020,
,,,0.039548000000,  -0.00040,
,,,0.039552000000,  -0.00020,
,,,0.039556000000,  -0.00040,
,,,0.039560000000,  -0.00060,
,,,0.039564000000,  -0.00020,
,,,0.039568000000,  -0.00040,
,,,0.039572000000,  -0.00040,
,,,0.039576000000,   0.00000,
,,,0.039580000000,  -0.00040,
,,,0.039584000000,  -0.00040,
,,,0.039588000000,  -0.00040,
,,,0.039592000000,  -0.00020,
,,,0.039596000000,  -0.00040,
,,,0.039600000000,   0.00000,
,,,0.039604000000,   0.00020,
,,,0.039608000000,  -0.00060,
,,,0.039612000000,  -0.00040,
,,,0.039616000000,  -0.00020,
,,,0.039620000000,  -0.00040,
,,,0.039624000000,  -0.00020,
,,,0.039628000000,  -0.00020,
,,,0.039632000000,  -0.00060,
,,,0.039636000000,   0.00000,
,,,0.039640000000,   0.00000,
,,,0.039644000000,  -0.00040,
,,,0.039648000000,  -0.00020,
,,,0.039652000000,  -0.00040,
,,,0.039656000000,  -0.00020,
,,,0.039660000000,  -0.00020,
,,,0.039664000000,   0.00020,
,,,0.039668000000,   0.00000,
,,,0.039672000000,  -0.00040,
,,,0.039676000000,  -0.00020,
,,,0.039680000000,  -0.00040,
,,,0.039684000000,  -0.00060,
,,,0.039688000000,  -0.00020,
,,,0.039692000000,  -0.00040,
,,,0.039696000000,  -0.00020,
,,,0.039700000000,  -0.00020,
,,,0.039704000000,  -0.00040,
,,,0.039708000000,  -0.00040,
,,,0.039712000000,   0.00000,
,,,0.039716000000,  -0.00060,
,,,0.039720000000,  -0.00020,
,,,0.039724000000,   0.00000,
,,,0.039728000000,  -0.00020,
,,,0.039732000000,  -0.00020,
,,,0.039736000000,  -0.00020,
,,,0.039740000000,  -0.00040,
,,,0.039744000000,  -0.00060,
,,,0.039748000000,  -0.00020,
,,,0.039752000000,  -0.00040,
,,,0.039756000000,  -0.00020,
,,,0.039760000000,  -0.00060,
,,,0.039764000000,   0.00000,
,,,0.039768000000,  -0.00040,
,,,0.039772000000,  -0.00060,
,,,0.039776000000,   0.00000,
,,,0.039780000000,   0.00000,
,,,0.039784000000,  -0.00020,
,,,0.039788000000,  -0.00020,
,,,0.039792000000,  -0.00040,
,,,0.039796000000,   0.00000,
,,,0.039800000000,  -0.00040,
,,,0.039804000000,  -0.00020,
,,,0.039808000000,  -0.00020,
,,,0.039812000000,  -0.00060,
,,,0.039816000000,  -0.00060,
,,,0.039820000000,  -0.00060,
,,,0.039824000000,  -0.00020,
,,,0.039828000000,  -0.00020,
,,,0.039832000000,  -0.00040,
,,,0.039836000000,  -0.00020,
,,,0.039840000000,  -0.00040,
,,,0.039844000000,   0.00000,
,,,0.039848000000,   0.00000,
,,,0.039852000000,  -0.00020,
,,,0.039856000000,  -0.00020,
,,,0.039860000000,  -0.00020,
,,,0.039864000000,  -0.00040,
,,,0.039868000000,  -0.00020,
,,,0.039872000000,   0.00000,
,,,0.039876000000,  -0.00020,
,,,0.039880000000,  -0.00060,
,,,0.039884000000,  -0.00320,
,,,0.039888000000,  -0.00620,
,,,0.039892000000,  -0.00760,
,,,0.039896000000,  -0.00820,
,,,0.039900000000,  -0.00860,
,,,0.039904000000,  -0.00820,
,,,0.039908000000,  -0.00860,
,,,0.039912000000,  -0.00860,
,,,0.039916000000,  -0.00880,
,,,0.039920000000,  -0.00860,
,,,0.039924000000,  -0.00860,
,,,0.039928000000,  -0.00880,
,,,0.039932000000,  -0.00880,
,,,0.039936000000,  -0.00860,
,,,0.039940000000,  -0.00840,
,,,0.039944000000,  -0.00880,
,,,0.039948000000,  -0.00860,
,,,0.039952000000,  -0.00860,
,,,0.039956000000,  -0.00860,
,,,0.039960000000,  -0.00860,
,,,0.039964000000,  -0.00860,
,,,0.039968000000,  -0.00900,
,,,0.039972000000,  -0.00880,
,,,0.039976000000,  -0.00840,
,,,0.039980000000,  -0.00900,
,,,0.039984000000,  -0.00900,
,,,0.039988000000,  -0.00840,
,,,0.039992000000,  -0.00920,
,,,0.039996000000,  -0.00840,
,,,0.040000000000,  -0.00880,
,,,0.040004000000,  -0.00860,
,,,0.040008000000,  -0.00860,
,,,0.040012000000,  -0.00840,
,,,0.040016000000,  -0.00860,
,,,0.040020000000,  -0.00840,
,,,0.040024000000,  -0.00860,
,,,0.040028000000,  -0.00860,
,,,0.040032000000,  -0.00880,
,,,0.040036000000,  -0.00860,
,,,0.040040000000,  -0.00840,
,,,0.040044000000,  -0.00860,
,,,0.040048000000,  -0.00840,
,,,0.040052000000,  -0.00860,
,,,0.040056000000,  -0.00860,
,,,0.040060000000,  -0.00840,
,,,0.040064000000,  -0.00860,
,,,0.040068000000,  -0.00840,
,,,0.040072000000,  -0.00820,
,,,0.040076000000,  -0.00840,
,,,0.040080000000,  -0.00840,
,,,0.040084000000,  -0.00860,
,,,0.040088000000,  -0.00860,
,,,0.040092000000,  -0.00880,
,,,0.040096000000,  -0.00840,
,,,0.040100000000,  -0.00840,
,,,0.040104000000,  -0.00860,
,,,0.040108000000,  -0.00880,
,,,0.040112000000,  -0.00880,
,,,0.040116000000,  -0.00840,
,,,0.040120000000,  -0.00860,
,,,0.040124000000,  -0.00860,
,,,0.040128000000,  -0.00860,
,,,0.040132000000,  -0.00880,
,,,0.040136000000,  -0.00820,
,,,0.040140000000,  -0.00840,
,,,0.040144000000,  -0.00860,
,,,0.040148000000,  -0.00860,
,,,0.040152000000,  -0.00860,
,,,0.040156000000,  -0.00840,
,,,0.040160000000,  -0.00840,
,,,0.040164000000,  -0.00860,
,,,0.040168000000,  -0.00820,
,,,0.040172000000,  -0.00860,
,,,0.040176000000,  -0.00860,
,,,0.040180000000,  -0.00860,
,,,0.040184000000,  -0.00860,
,,,0.040188000000,  -0.00820,
,,,0.040192000000,  -0.00860,
,,,0.040196000000,  -0.00820,
,,,0.040200000000,  -0.00820,
,,,0.040204000000,  -0.00840,
,,,0.040208000000,  -0.00820,
,,,0.040212000000,  -0.00840,
,,,0.040216000000,  -0.00800,
,,,0.040220000000,  -0.00840,
,,,0.040224000000,  -0.00840,
,,,0.040228000000,  -0.00840,
,,,0.040232000000,  -0.00820,
,,,0.040236000000,  -0.00840,
,,,0.040240000000,  -0.00880,
,,,0.040244000000,  -0.00880,
,,,0.040248000000,  -0.00840,
,,,0.040252000000,  -0.00840,
,,,0.040256000000,  -0.00820,
,,,0.040260000000,  -0.00820,
,,,0.040264000000,  -0.00840,
,,,0.040268000000,  -0.00780,
,,,0.040272000000,  -0.00840,
,,,0.040276000000,  -0.00820,
,,,0.040280000000,  -0.00840,
,,,0.040284000000,  -0.00840,
,,,0.040288000000,  -0.00800,
,,,0.040292000000,  -0.00840,
,,,0.040296000000,  -0.00820,
,,,0.040300000000,  -0.00840,
,,,0.040304000000,  -0.00860,
,,,0.040308000000,  -0.00820,
,,,0.040312000000,  -0.00860,
,,,0.040316000000,  -0.00860,
,,,0.040320000000,  -0.00840,
,,,0.040324000000,  -0.00860,
,,,0.040328000000,  -0.00800,
,,,0.040332000000,  -0.00840,
,,,0.040336000000,  -0.00840,
,,,0.040340000000,  -0.00840,
,,,0.040344000000,  -0.00820,
,,,0.040348000000,  -0.00820,
,,,0.040352000000,  -0.00800,
,,,0.040356000000,  -0.00820,
,,,0.040360000000,  -0.00840,
,,,0.040364000000,  -0.00820,
,,,0.040368000000,  -0.00820,
,,,0.040372000000,  -0.00820,
,,,0.040376000000,  -0.00840,
,,,0.040380000000,  -0.00840,
,,,0.040384000000,  -0.00820,
,,,0.040388000000,  -0.00840,
,,,0.040392000000,  -0.00820,
,,,0.040396000000,  -0.00820,
,,,0.040400000000,  -0.00800,
,,,0.040404000000,  -0.00800,
,,,0.040408000000,  -0.00800,
,,,0.040412000000,  -0.00840,
