ex1_nmr/paramagnetic_data/TEK0063.CSV

Record Length,2.500000e+03,,   0.097760000000,   0.00020,
Sample Interval,4.000000e-06,,   0.097764000000,   0.00020,
Trigger Point,-2.444000000000e+04,,   0.097768000000,  -0.00040,
,,,   0.097772000000,  -0.00040,
,,,   0.097776000000,   0.00000,
,,,   0.097780000000,  -0.00020,
Source,CH2,,   0.097784000000,  -0.00020,
Vertical Units,V,,   0.097788000000,  -0.00020,
Vertical Scale,5.000000e-03,,   0.097792000000,  -0.00020,
Vertical Offset,0.000000e+00,,   0.097796000000,   0.00000,
Horizontal Units,s,,   0.097800000000,  -0.00020,
Horizontal Scale,1.000000e-03,,   0.097804000000,  -0.00020,
Pt Fmt,Y,,   0.097808000000,  -0.00020,
Yzero,0.000000e+00,,   0.097812000000,  -0.00020,
Probe Atten,1.000000e+00,,   0.097816000000,  -0.00020,
Model Number,TDS2014C,,   0.097820000000,  -0.00040,
Serial Number,C031611,,   0.097824000000,   0.00000,
Firmware Version,FV:v24.26,,   0.097828000000,   0.00020,
,,,0.097832000000,   0.00040,
,,,0.097836000000,  -0.00020,
,,,0.097840000000,  -0.00040,
,,,0.097844000000,   0.00020,
,,,0.097848000000,  -0.00020,
,,,0.097852000000,  -0.00020,
,,,0.097856000000,  -0.00040,
,,,0.097860000000,  -0.00020,
,,,0.097864000000,  -0.00020,
,,,0.097868000000,   0.00000,
,,,0.097872000000,   0.00000,
,,,0.097876000000,   0.00000,
,,,0.097880000000,  -0.00020,
,,,0.097884000000,  -0.00020,
,,,0.097888000000,   0.00020,
,,,0.097892000000,   0.00000,
,,,0.097896000000,  -0.00020,
,,,0.097900000000,  -0.00040,
,,,0.097904000000,   0.00000,
,,,0.097908000000,  -0.00020,
,,,0.097912000000,   0.00000,
,,,0.097916000000,   0.00000,
,,,0.097920000000,   0.00000,
,,,0.097924000000,   0.00020,
,,,0.097928000000,  -0.00020,
,,,0.097932000000,   0.00000,
,,,0.097936000000,   0.00000,
,,,0.097940000000,   0.00020,
,,,0.097944000000,   0.00000,
,,,0.097948000000,  -0.00040,
,,,0.097952000000,   0.00000,
,,,0.097956000000,  -0.00020,
,,,0.097960000000,  -0.00020,
,,,0.097964000000,   0.00000,
,,,0.097968000000,   0.00000,
,,,0.097972000000,  -0.00020,
,,,0.097976000000,  -0.00020,
,,,0.097980000000,   0.00000,
,,,0.097984000000,  -0.00020,
,,,0.097988000000,  -0.00020,
,,,0.097992000000,   0.00000,
,,,0.097996000000,   0.00040,
,,,0.098000000000,   0.00000,
,,,0.098004000000,   0.00020,
,,,0.098008000000,   0.00020,
,,,0.098012000000,  -0.00020,
,,,0.098016000000,   0.00000,
,,,0.098020000000,   0.00000,
,,,0.098024000000,   0.00000,
,,,0.098028000000,  -0.00020,
,,,0.098032000000,  -0.00020,
,,,0.098036000000,   0.00000,
,,,0.098040000000,  -0.00020,
,,,0.098044000000,   0.00000,
,,,0.098048000000,   0.00000,
,,,0.098052000000,  -0.00020,
,,,0.098056000000,   0.00000,
,,,0.098060000000,  -0.00020,
,,,0.098064000000,   0.00000,
,,,0.098068000000,  -0.00020,
,,,0.098072000000,  -0.00020,
,,,0.098076000000,  -0.00020,
,,,0.098080000000,   0.00000,
,,,0.098084000000,  -0.00020,
,,,0.098088000000,   0.00000,
,,,0.098092000000,  -0.00020,
,,,0.098096000000,   0.00020,
,,,0.098100000000,  -0.00040,
,,,0.098104000000,  -0.00020,
,,,0.098108000000,   0.00000,
,,,0.098112000000,  -0.00040,
,,,0.098116000000,   0.00020,
,,,0.098120000000,  -0.00020,
,,,0.098124000000,   0.00000,
,,,0.098128000000,  -0.00040,
,,,0.098132000000,   0.00000,
,,,0.098136000000,  -0.00020,
,,,0.098140000000,  -0.00020,
,,,0.098144000000,  -0.00020,
,,,0.098148000000,   0.00000,
,,,0.098152000000,   0.00000,
,,,0.098156000000,   0.00000,
,,,0.098160000000,   0.00000,
,,,0.098164000000,   0.00000,
,,,0.098168000000,  -0.00020,
,,,0.098172000000,  -0.00020,
,,,0.098176000000,  -0.00020,
,,,0.098180000000,   0.00000,
,,,0.098184000000,   0.00020,
,,,0.098188000000,  -0.00040,
,,,0.098192000000,  -0.00020,
,,,0.098196000000,   0.00000,
,,,0.098200000000,  -0.00020,
,,,0.098204000000,   0.00000,
,,,0.098208000000,  -0.00020,
,,,0.098212000000,  -0.00020,
,,,0.098216000000,  -0.00020,
,,,0.098220000000,   0.00000,
,,,0.098224000000,  -0.00020,
,,,0.098228000000,  -0.00040,
,,,0.098232000000,  -0.00020,
,,,0.098236000000,   0.00000,
,,,0.098240000000,   0.00000,
,,,0.098244000000,   0.00000,
,,,0.098248000000,   0.00000,
,,,0.098252000000,   0.00000,
,,,0.098256000000,   0.00020,
,,,0.098260000000,   0.00000,
,,,0.098264000000,   0.00000,
,,,0.098268000000,   0.00000,
,,,0.098272000000,   0.00000,
,,,0.098276000000,  -0.00040,
,,,0.098280000000,  -0.00020,
,,,0.098284000000,  -0.00020,
,,,0.098288000000,  -0.00020,
,,,0.098292000000,   0.00020,
,,,0.098296000000,  -0.00020,
,,,0.098300000000,   0.00000,
,,,0.098304000000,   0.00000,
,,,0.098308000000,  -0.00020,
,,,0.098312000000,  -0.00020,
,,,0.098316000000,   0.00000,
,,,0.098320000000,   0.00000,
,,,0.098324000000,  -0.00040,
,,,0.098328000000,   0.00000,
,,,0.098332000000,   0.00000,
,,,0.098336000000,   0.00020,
,,,0.098340000000,   0.00000,
,,,0.098344000000,  -0.00040,
,,,0.098348000000,   0.00000,
,,,0.098352000000,  -0.00020,
,,,0.098356000000,  -0.00020,
,,,0.098360000000,  -0.00020,
,,,0.098364000000,   0.00020,
,,,0.098368000000,  -0.00020,
,,,0.098372000000,  -0.00020,
,,,0.098376000000,  -0.00040,
,,,0.098380000000,  -0.00020,
,,,0.098384000000,   0.00000,
,,,0.098388000000,  -0.00020,
,,,0.098392000000,  -0.00020,
,,,0.098396000000,   0.00000,
,,,0.098400000000,  -0.00020,
,,,0.098404000000,  -0.00020,
,,,0.098408000000,  -0.00020,
,,,0.098412000000,   0.00020,
,,,0.098416000000,   0.00000,
,,,0.098420000000,   0.00000,
,,,0.098424000000,  -0.00020,
,,,0.098428000000,  -0.00020,
,,,0.098432000000,   0.00000,
,,,0.098436000000,  -0.00040,
,,,0.098440000000,  -0.00020,
,,,0.098444000000,   0.00000,
,,,0.098448000000,   0.00000,
,,,0.098452000000,  -0.00020,
,,,0.098456000000,   0.00000,
,,,0.098460000000,   0.00000,
,,,0.098464000000,  -0.00020,
,,,0.098468000000,   0.00000,
,,,0.098472000000,   0.00000,
,,,0.098476000000,   0.00000,
,,,0.098480000000,  -0.00020,
,,,0.098484000000,   0.00000,
,,,0.098488000000,  -0.00020,
,,,0.098492000000,  -0.00020,
,,,0.098496000000,   0.00020,
,,,0.098500000000,  -0.00020,
,,,0.098504000000,   0.00020,
,,,0.098508000000,   0.00000,
,,,0.098512000000,   0.00020,
,,,0.098516000000,  -0.00020,
,,,0.098520000000,   0.00000,
,,,0.098524000000,  -0.00020,
,,,0.098528000000,  -0.00020,
,,,0.098532000000,  -0.00020,
,,,0.098536000000,   0.00000,
,,,0.098540000000,  -0.00020,
,,,0.098544000000,   0.00000,
,,,0.098548000000,   0.00000,
,,,0.098552000000,   0.00000,
,,,0.098556000000,  -0.00040,
,,,0.098560000000,   0.00000,
,,,0.098564000000,  -0.00020,
,,,0.098568000000,   0.00000,
,,,0.098572000000,  -0.00020,
,,,0.098576000000,   0.00000,
,,,0.098580000000,   0.00000,
,,,0.098584000000,   0.00000,
,,,0.098588000000,   0.00020,
,,,0.098592000000,  -0.00020,
,,,0.098596000000,  -0.00020,
,,,0.098600000000,  -0.00020,
,,,0.098604000000,  -0.00020,
,,,0.098608000000,  -0.00040,
,,,0.098612000000,   0.00000,
,,,0.098616000000,   0.00000,
,,,0.098620000000,  -0.00020,
,,,0.098624000000,  -0.00040,
,,,0.098628000000,   0.00000,
,,,0.098632000000,   0.00000,
,,,0.098636000000,  -0.00020,
,,,0.098640000000,  -0.00020,
,,,0.098644000000,   0.00000,
,,,0.098648000000,   0.00020,
,,,0.098652000000,   0.00000,
,,,0.098656000000,  -0.00040,
,,,0.098660000000,   0.00000,
,,,0.098664000000,  -0.00040,
,,,0.098668000000,   0.00020,
,,,0.098672000000,  -0.00020,
,,,0.098676000000,   0.00000,
,,,0.098680000000,  -0.00040,
,,,0.098684000000,   0.00000,
,,,0.098688000000,  -0.00040,
,,,0.098692000000,  -0.00020,
,,,0.098696000000,   0.00000,
,,,0.098700000000,  -0.00040,
,,,0.098704000000,   0.00000,
,,,0.098708000000,  -0.00020,
,,,0.098712000000,  -0.00040,
,,,0.098716000000,   0.00000,
,,,0.098720000000,  -0.00020,
,,,0.098724000000,  -0.00040,
,,,0.098728000000,  -0.00020,
,,,0.098732000000,   0.00000,
,,,0.098736000000,  -0.00020,
,,,0.098740000000,  -0.00040,
,,,0.098744000000,   0.00020,
,,,0.098748000000,   0.00000,
,,,0.098752000000,  -0.00020,
,,,0.098756000000,   0.00020,
,,,0.098760000000,   0.00000,
,,,0.098764000000,   0.00000,
,,,0.098768000000,   0.00000,
,,,0.098772000000,  -0.00020,
,,,0.098776000000,   0.00000,
,,,0.098780000000,   0.00020,
,,,0.098784000000,  -0.00040,
,,,0.098788000000,   0.00000,
,,,0.098792000000,  -0.00020,
,,,0.098796000000,   0.00000,
,,,0.098800000000,   0.00000,
,,,0.098804000000,   0.00000,
,,,0.098808000000,  -0.00020,
,,,0.098812000000,   0.00020,
,,,0.098816000000,  -0.00020,
,,,0.098820000000,   0.00000,
,,,0.098824000000,   0.00000,
,,,0.098828000000,  -0.00040,
,,,0.098832000000,  -0.00020,
,,,0.098836000000,  -0.00020,
,,,0.098840000000,  -0.00040,
,,,0.098844000000,  -0.00020,
,,,0.098848000000,  -0.00020,
,,,0.098852000000,   0.00000,
,,,0.098856000000,  -0.00020,
,,,0.098860000000,   0.00000,
,,,0.098864000000,  -0.00020,
,,,0.098868000000,   0.00000,
,,,0.098872000000,  -0.00020,
,,,0.098876000000,  -0.00040,
,,,0.098880000000,  -0.00040,
,,,0.098884000000,   0.00020,
,,,0.098888000000,  -0.00020,
,,,0.098892000000,   0.00000,
,,,0.098896000000,  -0.00020,
,,,0.098900000000,  -0.00040,
,,,0.098904000000,  -0.00020,
,,,0.098908000000,  -0.00040,
,,,0.098912000000,  -0.00020,
,,,0.098916000000,   0.00020,
,,,0.098920000000,  -0.00020,
,,,0.098924000000,   0.00000,
,,,0.098928000000,   0.00020,
,,,0.098932000000,  -0.00020,
,,,0.098936000000,   0.00000,
,,,0.098940000000,   0.00000,
,,,0.098944000000,   0.00000,
,,,0.098948000000,   0.00000,
,,,0.098952000000,   0.00000,
,,,0.098956000000,  -0.00020,
,,,0.098960000000,  -0.00020,
,,,0.098964000000,  -0.00040,
,,,0.098968000000,  -0.00020,
,,,0.098972000000,  -0.00040,
,,,0.098976000000,  -0.00020,
,,,0.098980000000,   0.00000,
,,,0.098984000000,  -0.00020,
,,,0.098988000000,   0.00000,
,,,0.098992000000,  -0.00020,
,,,0.098996000000,  -0.00020,
,,,0.099000000000,   0.00000,
,,,0.099004000000,  -0.00040,
,,,0.099008000000,   0.00000,
,,,0.099012000000,  -0.00020,
,,,0.099016000000,  -0.00040,
,,,0.099020000000,   0.00000,
,,,0.099024000000,  -0.00020,
,,,0.099028000000,  -0.00040,
,,,0.099032000000,   0.00000,
,,,0.099036000000,   0.00000,
,,,0.099040000000,   0.00020,
,,,0.099044000000,  -0.00020,
,,,0.099048000000,   0.00000,
,,,0.099052000000,   0.00000,
,,,0.099056000000,   0.00000,
,,,0.099060000000,  -0.00020,
,,,0.099064000000,   0.00000,
,,,0.099068000000,  -0.00020,
,,,0.099072000000,   0.00020,
,,,0.099076000000,   0.00000,
,,,0.099080000000,  -0.00020,
,,,0.099084000000,   0.00000,
,,,0.099088000000,   0.00000,
,,,0.099092000000,  -0.00020,
,,,0.099096000000,  -0.00020,
,,,0.099100000000,   0.00000,
,,,0.099104000000,   0.00020,
,,,0.099108000000,  -0.00040,
,,,0.099112000000,   0.00000,
,,,0.099116000000,   0.00000,
,,,0.099120000000,  -0.00020,
,,,0.099124000000,  -0.00040,
,,,0.099128000000,  -0.00040,
,,,0.099132000000,  -0.00040,
,,,0.099136000000,   0.00000,
,,,0.099140000000,  -0.00020,
,,,0.099144000000,   0.00000,
,,,0.099148000000,   0.00000,
,,,0.099152000000,  -0.00020,
,,,0.099156000000,  -0.00040,
,,,0.099160000000,  -0.00020,
,,,0.099164000000,  -0.00020,
,,,0.099168000000,   0.00000,
,,,0.099172000000,  -0.00020,
,,,0.099176000000,   0.00000,
,,,0.099180000000,   0.00000,
,,,0.099184000000,   0.00000,
,,,0.099188000000,   0.00000,
,,,0.099192000000,  -0.00020,
,,,0.099196000000,  -0.00020,
,,,0.099200000000,   0.00000,
,,,0.099204000000,  -0.00020,
,,,0.099208000000,  -0.00020,
,,,0.099212000000,  -0.00060,
,,,0.099216000000,   0.00000,
,,,0.099220000000,  -0.00020,
,,,0.099224000000,  -0.00040,
,,,0.099228000000,   0.00000,
,,,0.099232000000,   0.00000,
,,,0.099236000000,   0.00000,
,,,0.099240000000,   0.00000,
,,,0.099244000000,   0.00000,
,,,0.099248000000,   0.00000,
,,,0.099252000000,  -0.00020,
,,,0.099256000000,   0.00000,
,,,0.099260000000,  -0.00020,
,,,0.099264000000,  -0.00020,
,,,0.099268000000,   0.00000,
,,,0.099272000000,  -0.00020,
,,,0.099276000000,  -0.00040,
,,,0.099280000000,   0.00000,
,,,0.099284000000,   0.00000,
,,,0.099288000000,  -0.00020,
,,,0.099292000000,   0.00000,
,,,0.099296000000,  -0.00040,
,,,0.099300000000,  -0.00040,
,,,0.099304000000,   0.00020,
,,,0.099308000000,  -0.00020,
,,,0.099312000000,   0.00000,
,,,0.099316000000,   0.00000,
,,,0.099320000000,   0.00000,
,,,0.099324000000,  -0.00020,
,,,0.099328000000,   0.00000,
,,,0.099332000000,  -0.00020,
,,,0.099336000000,  -0.00020,
,,,0.099340000000,   0.00020,
,,,0.099344000000,  -0.00020,
,,,0.099348000000,   0.00000,
,,,0.099352000000,  -0.00020,
,,,0.099356000000,  -0.00040,
,,,0.099360000000,  -0.00020,
,,,0.099364000000,  -0.00020,
,,,0.099368000000,  -0.00040,
,,,0.099372000000,  -0.00040,
,,,0.099376000000,  -0.00020,
,,,0.099380000000,   0.00000,
,,,0.099384000000,  -0.00020,
,,,0.099388000000,  -0.00040,
,,,0.099392000000,  -0.00020,
,,,0.099396000000,  -0.00040,
,,,0.099400000000,  -0.00040,
,,,0.099404000000,  -0.00020,
,,,0.099408000000,  -0.00040,
,,,0.099412000000,  -0.00020,
,,,0.099416000000,   0.00020,
,,,0.099420000000,   0.00020,
,,,0.099424000000,  -0.00020,
,,,0.099428000000,   0.00000,
,,,0.099432000000,  -0.00020,
,,,0.099436000000,   0.00020,
,,,0.099440000000,   0.00020,
,,,0.099444000000,  -0.00020,
,,,0.099448000000,   0.00000,
,,,0.099452000000,   0.00000,
,,,0.099456000000,  -0.00020,
,,,0.099460000000,   0.00000,
,,,0.099464000000,  -0.00020,
,,,0.099468000000,   0.00000,
,,,0.099472000000,  -0.00020,
,,,0.099476000000,   0.00000,
,,,0.099480000000,  -0.00020,
,,,0.099484000000,  -0.00020,
,,,0.099488000000,   0.00020,
,,,0.099492000000,   0.00000,
,,,0.099496000000,  -0.00040,
,,,0.099500000000,  -0.00020,
,,,0.099504000000,   0.00000,
,,,0.099508000000,   0.00000,
,,,0.099512000000,   0.00000,
,,,0.099516000000,   0.00000,
,,,0.099520000000,   0.00000,
,,,0.099524000000,  -0.00020,
,,,0.099528000000,  -0.00020,
,,,0.099532000000,   0.00000,
,,,0.099536000000,  -0.00020,
,,,0.099540000000,   0.00000,
,,,0.099544000000,  -0.00020,
,,,0.099548000000,  -0.00020,
,,,0.099552000000,   0.00000,
,,,0.099556000000,  -0.00020,
,,,0.099560000000,   0.00000,
,,,0.099564000000,  -0.00020,
,,,0.099568000000,  -0.00020,
,,,0.099572000000,   0.00020,
,,,0.099576000000,   0.00000,
,,,0.099580000000,   0.00000,
,,,0.099584000000,  -0.00020,
,,,0.099588000000,   0.00000,
,,,0.099592000000,   0.00000,
,,,0.099596000000,  -0.00020,
,,,0.099600000000,   0.00000,
,,,0.099604000000,  -0.00020,
,,,0.099608000000,   0.00000,
,,,0.099612000000,   0.00000,
,,,0.099616000000,  -0.00060,
,,,0.099620000000,   0.00000,
,,,0.099624000000,  -0.00020,
,,,0.099628000000,   0.00000,
,,,0.099632000000,  -0.00020,
,,,0.099636000000,  -0.00040,
,,,0.099640000000,  -0.00020,
,,,0.099644000000,   0.00020,
,,,0.099648000000,   0.00020,
,,,0.099652000000,   0.00020,
,,,0.099656000000,   0.00000,
,,,0.099660000000,  -0.00020,
,,,0.099664000000,  -0.00020,
,,,0.099668000000,   0.00000,
,,,0.099672000000,   0.00020,
,,,0.099676000000,   0.00000,
,,,0.099680000000,  -0.00020,
,,,0.099684000000,   0.00000,
,,,0.099688000000,  -0.00020,
,,,0.099692000000,   0.00020,
,,,0.099696000000,   0.00000,
,,,0.099700000000,  -0.00020,
,,,0.099704000000,  -0.00040,
,,,0.099708000000,   0.00020,
,,,0.099712000000,   0.00000,
,,,0.099716000000,   0.00000,
,,,0.099720000000,   0.00000,
,,,0.099724000000,  -0.00020,
,,,0.099728000000,  -0.00020,
,,,0.099732000000,  -0.00040,
,,,0.099736000000,   0.00020,
,,,0.099740000000,  -0.00040,
,,,0.099744000000,   0.00000,
,,,0.099748000000,  -0.00020,
,,,0.099752000000,  -0.00020,
,,,0.099756000000,  -0.00020,
,,,0.099760000000,  -0.00020,
,,,0.099764000000,   0.00000,
,,,0.099768000000,   0.00020,
,,,0.099772000000,   0.00000,
,,,0.099776000000,   0.00020,
,,,0.099780000000,  -0.00020,
,,,0.099784000000,   0.00000,
,,,0.099788000000,   0.00000,
,,,0.099792000000,   0.00000,
,,,0.099796000000,   0.00020,
,,,0.099800000000,  -0.00020,
,,,0.099804000000,   0.00020,
,,,0.099808000000,   0.00000,
,,,0.099812000000,   0.00020,
,,,0.099816000000,   0.00040,
,,,0.099820000000,  -0.00040,
,,,0.099824000000,  -0.00020,
,,,0.099828000000,  -0.00020,
,,,0.099832000000,   0.00000,
,,,0.099836000000,   0.00020,
,,,0.099840000000,  -0.00380,
,,,0.099844000000,  -0.00680,
,,,0.099848000000,  -0.00900,
,,,0.099852000000,  -0.00840,
,,,0.099856000000,  -0.00840,
,,,0.099860000000,  -0.00840,
,,,0.099864000000,  -0.00920,
,,,0.099868000000,  -0.01060,
,,,0.099872000000,  -0.01140,
,,,0.099876000000,  -0.01160,
,,,0.099880000000,  -0.01140,
,,,0.099884000000,  -0.01140,
,,,0.099888000000,  -0.01160,
,,,0.099892000000,  -0.01100,
,,,0.099896000000,  -0.01120,
,,,0.099900000000,  -0.01100,
,,,0.099904000000,  -0.01120,
,,,0.099908000000,  -0.01140,
,,,0.099912000000,  -0.01100,
,,,0.099916000000,  -0.01120,
,,,0.099920000000,  -0.01120,
,,,0.099924000000,  -0.01120,
,,,0.099928000000,  -0.01120,
,,,0.099932000000,  -0.01120,
,,,0.099936000000,  -0.01120,
,,,0.099940000000,  -0.01080,
,,,0.099944000000,  -0.01140,
,,,0.099948000000,  -0.01120,
,,,0.099952000000,  -0.01100,
,,,0.099956000000,  -0.01100,
,,,0.099960000000,  -0.01120,
,,,0.099964000000,  -0.01120,
,,,0.099968000000,  -0.01120,
,,,0.099972000000,  -0.01100,
,,,0.099976000000,  -0.01100,
,,,0.099980000000,  -0.01120,
,,,0.099984000000,  -0.01100,
,,,0.099988000000,  -0.01120,
,,,0.099992000000,  -0.01120,
,,,0.099996000000,  -0.01100,
,,,0.100000000000,  -0.01080,
,,,0.100004000000,  -0.01120,
,,,0.100008000000,  -0.01120,
,,,0.100012000000,  -0.01100,
,,,0.100016000000,  -0.01160,
,,,0.100020000000,  -0.01120,
,,,0.100024000000,  -0.01080,
,,,0.100028000000,  -0.01120,
,,,0.100032000000,  -0.01100,
,,,0.100036000000,  -0.01080,
,,,0.100040000000,  -0.01100,
,,,0.100044000000,  -0.01120,
,,,0.100048000000,  -0.01100,
,,,0.100052000000,  -0.01100,
,,,0.100056000000,  -0.01100,
,,,0.100060000000,  -0.01100,
,,,0.100064000000,  -0.01080,
,,,0.100068000000,  -0.01100,
,,,0.100072000000,  -0.01080,
,,,0.100076000000,  -0.01120,
,,,0.100080000000,  -0.01100,
,,,0.100084000000,  -0.01120,
,,,0.100088000000,  -0.01100,
,,,0.100092000000,  -0.01120,
,,,0.100096000000,  -0.01080,
,,,0.100100000000,  -0.01100,
,,,0.100104000000,  -0.01100,
,,,0.100108000000,  -0.01120,
,,,0.100112000000,  -0.01100,
,,,0.100116000000,  -0.01140,
,,,0.100120000000,  -0.01100,
,,,0.100124000000,  -0.01100,
,,,0.100128000000,  -0.01100,
,,,0.100132000000,  -0.01120,
,,,0.100136000000,  -0.01120,
,,,0.100140000000,  -0.01080,
,,,0.100144000000,  -0.01100,
,,,0.100148000000,  -0.01080,
,,,0.100152000000,  -0.01080,
,,,0.100156000000,  -0.01080,
,,,0.100160000000,  -0.01140,
,,,0.100164000000,  -0.01100,
,,,0.100168000000,  -0.01080,
,,,0.100172000000,  -0.01080,
,,,0.100176000000,  -0.01100,
,,,0.100180000000,  -0.01120,
,,,0.100184000000,  -0.01100,
,,,0.100188000000,  -0.01060,
,,,0.100192000000,  -0.01100,
,,,0.100196000000,  -0.01100,
,,,0.100200000000,  -0.01100,
,,,0.100204000000,  -0.01120,
,,,0.100208000000,  -0.01080,
,,,0.100212000000,  -0.01080,
,,,0.100216000000,  -0.01060,
,,,0.100220000000,  -0.01080,
,,,0.100224000000,  -0.01080,
,,,0.100228000000,  -0.01080,
,,,0.100232000000,  -0.01100,
,,,0.100236000000,  -0.01120,
,,,0.100240000000,  -0.01080,
,,,0.100244000000,  -0.01060,
,,,0.100248000000,  -0.01060,
,,,0.100252000000,  -0.01080,
,,,0.100256000000,  -0.01080,
,,,0.100260000000,  -0.01060,
,,,0.100264000000,  -0.01020,
,,,0.100268000000,  -0.01080,
,,,0.100272000000,  -0.01080,
,,,0.100276000000,  -0.01060,
,,,0.100280000000,  -0.01060,
,,,0.100284000000,  -0.01080,
,,,0.100288000000,  -0.01040,
,,,0.100292000000,  -0.01060,
,,,0.100296000000,  -0.01080,
,,,0.100300000000,  -0.01080,
,,,0.100304000000,  -0.01060,
,,,0.100308000000,  -0.01080,
,,,0.100312000000,  -0.01080,
,,,0.100316000000,  -0.01080,
,,,0.100320000000,  -0.01060,
,,,0.100324000000,  -0.01060,
,,,0.100328000000,  -0.01060,
,,,0.100332000000,  -0.01080,
,,,0.100336000000,  -0.01040,
,,,0.100340000000,  -0.01080,
,,,0.100344000000,  -0.01060,
,,,0.100348000000,  -0.01060,
,,,0.100352000000,  -0.01080,
,,,0.100356000000,  -0.01060,
,,,0.100360000000,  -0.01060,
,,,0.100364000000,  -0.01060,
,,,0.100368000000,  -0.01040,
,,,0.100372000000,  -0.01060,
