ex1_nmr/paramagnetic_data/TEK0096.CSV

Record Length,2.500000e+03,,   0.027560000000,  -0.00020,
Sample Interval,4.000000e-06,,   0.027564000000,  -0.00060,
Trigger Point,-6.890000000000e+03,,   0.027568000000,  -0.00080,
,,,   0.027572000000,  -0.00080,
,,,   0.027576000000,  -0.00060,
,,,   0.027580000000,  -0.00060,
Source,CH2,,   0.027584000000,  -0.00060,
Vertical Units,V,,   0.027588000000,  -0.00060,
Vertical Scale,5.000000e-03,,   0.027592000000,  -0.00060,
Vertical Offset,0.000000e+00,,   0.027596000000,  -0.00080,
Horizontal Units,s,,   0.027600000000,  -0.00040,
Horizontal Scale,1.000000e-03,,   0.027604000000,  -0.00080,
Pt Fmt,Y,,   0.027608000000,  -0.00040,
Yzero,0.000000e+00,,   0.027612000000,  -0.00060,
Probe Atten,1.000000e+00,,   0.027616000000,  -0.00040,
Model Number,TDS2014C,,   0.027620000000,  -0.00040,
Serial Number,C031611,,   0.027624000000,  -0.00040,
Firmware Version,FV:v24.26,,   0.027628000000,  -0.00020,
,,,0.027632000000,  -0.00060,
,,,0.027636000000,  -0.00040,
,,,0.027640000000,  -0.00080,
,,,0.027644000000,  -0.00040,
,,,0.027648000000,  -0.00080,
,,,0.027652000000,  -0.00060,
,,,0.027656000000,  -0.00060,
,,,0.027660000000,  -0.00060,
,,,0.027664000000,  -0.00040,
,,,0.027668000000,  -0.00060,
,,,0.027672000000,  -0.00060,
,,,0.027676000000,  -0.00060,
,,,0.027680000000,  -0.00060,
,,,0.027684000000,  -0.00040,
,,,0.027688000000,  -0.00060,
,,,0.027692000000,  -0.00080,
,,,0.027696000000,  -0.00060,
,,,0.027700000000,  -0.00060,
,,,0.027704000000,  -0.00060,
,,,0.027708000000,  -0.00080,
,,,0.027712000000,  -0.00060,
,,,0.027716000000,  -0.00080,
,,,0.027720000000,  -0.00040,
,,,0.027724000000,  -0.00040,
,,,0.027728000000,  -0.00040,
,,,0.027732000000,  -0.00080,
,,,0.027736000000,  -0.00060,
,,,0.027740000000,  -0.00080,
,,,0.027744000000,  -0.00080,
,,,0.027748000000,  -0.00060,
,,,0.027752000000,  -0.00040,
,,,0.027756000000,  -0.00060,
,,,0.027760000000,  -0.00080,
,,,0.027764000000,  -0.00040,
,,,0.027768000000,  -0.00060,
,,,0.027772000000,  -0.00080,
,,,0.027776000000,  -0.00080,
,,,0.027780000000,  -0.00080,
,,,0.027784000000,  -0.00060,
,,,0.027788000000,  -0.00060,
,,,0.027792000000,  -0.00040,
,,,0.027796000000,  -0.00080,
,,,0.027800000000,  -0.00080,
,,,0.027804000000,  -0.00040,
,,,0.027808000000,  -0.00040,
,,,0.027812000000,  -0.00080,
,,,0.027816000000,  -0.00020,
,,,0.027820000000,  -0.00060,
,,,0.027824000000,  -0.00060,
,,,0.027828000000,  -0.00060,
,,,0.027832000000,  -0.00060,
,,,0.027836000000,  -0.00060,
,,,0.027840000000,  -0.00060,
,,,0.027844000000,  -0.00060,
,,,0.027848000000,  -0.00020,
,,,0.027852000000,  -0.00060,
,,,0.027856000000,  -0.00060,
,,,0.027860000000,  -0.00060,
,,,0.027864000000,  -0.00040,
,,,0.027868000000,  -0.00080,
,,,0.027872000000,  -0.00060,
,,,0.027876000000,  -0.00040,
,,,0.027880000000,  -0.00040,
,,,0.027884000000,  -0.00060,
,,,0.027888000000,  -0.00080,
,,,0.027892000000,  -0.00080,
,,,0.027896000000,  -0.00020,
,,,0.027900000000,  -0.00040,
,,,0.027904000000,  -0.00080,
,,,0.027908000000,  -0.00060,
,,,0.027912000000,  -0.00060,
,,,0.027916000000,  -0.00060,
,,,0.027920000000,  -0.00060,
,,,0.027924000000,  -0.00040,
,,,0.027928000000,  -0.00060,
,,,0.027932000000,  -0.00060,
,,,0.027936000000,  -0.00060,
,,,0.027940000000,  -0.00080,
,,,0.027944000000,  -0.00040,
,,,0.027948000000,  -0.00080,
,,,0.027952000000,  -0.00060,
,,,0.027956000000,  -0.00060,
,,,0.027960000000,  -0.00060,
,,,0.027964000000,  -0.00060,
,,,0.027968000000,  -0.00040,
,,,0.027972000000,  -0.00080,
,,,0.027976000000,  -0.00020,
,,,0.027980000000,  -0.00040,
,,,0.027984000000,  -0.00040,
,,,0.027988000000,  -0.00060,
,,,0.027992000000,  -0.00080,
,,,0.027996000000,  -0.00080,
,,,0.028000000000,  -0.00040,
,,,0.028004000000,  -0.00040,
,,,0.028008000000,  -0.00040,
,,,0.028012000000,  -0.00060,
,,,0.028016000000,  -0.00060,
,,,0.028020000000,  -0.00080,
,,,0.028024000000,  -0.00060,
,,,0.028028000000,  -0.00040,
,,,0.028032000000,  -0.00080,
,,,0.028036000000,  -0.00060,
,,,0.028040000000,  -0.00060,
,,,0.028044000000,  -0.00080,
,,,0.028048000000,  -0.00080,
,,,0.028052000000,  -0.00040,
,,,0.028056000000,  -0.00080,
,,,0.028060000000,  -0.00060,
,,,0.028064000000,  -0.00060,
,,,0.028068000000,  -0.00040,
,,,0.028072000000,  -0.00040,
,,,0.028076000000,  -0.00040,
,,,0.028080000000,  -0.00060,
,,,0.028084000000,  -0.00060,
,,,0.028088000000,  -0.00060,
,,,0.028092000000,  -0.00040,
,,,0.028096000000,  -0.00060,
,,,0.028100000000,  -0.00040,
,,,0.028104000000,  -0.00060,
,,,0.028108000000,  -0.00040,
,,,0.028112000000,  -0.00080,
,,,0.028116000000,  -0.00060,
,,,0.028120000000,  -0.00040,
,,,0.028124000000,  -0.00040,
,,,0.028128000000,  -0.00100,
,,,0.028132000000,  -0.00040,
,,,0.028136000000,  -0.00060,
,,,0.028140000000,  -0.00060,
,,,0.028144000000,  -0.00040,
,,,0.028148000000,  -0.00060,
,,,0.028152000000,  -0.00060,
,,,0.028156000000,  -0.00060,
,,,0.028160000000,  -0.00080,
,,,0.028164000000,  -0.00060,
,,,0.028168000000,  -0.00040,
,,,0.028172000000,  -0.00060,
,,,0.028176000000,  -0.00080,
,,,0.028180000000,  -0.00060,
,,,0.028184000000,  -0.00040,
,,,0.028188000000,  -0.00060,
,,,0.028192000000,  -0.00020,
,,,0.028196000000,  -0.00060,
,,,0.028200000000,  -0.00040,
,,,0.028204000000,  -0.00080,
,,,0.028208000000,  -0.00060,
,,,0.028212000000,  -0.00040,
,,,0.028216000000,  -0.00060,
,,,0.028220000000,  -0.00020,
,,,0.028224000000,  -0.00080,
,,,0.028228000000,  -0.00040,
,,,0.028232000000,  -0.00040,
,,,0.028236000000,  -0.00060,
,,,0.028240000000,  -0.00060,
,,,0.028244000000,  -0.00060,
,,,0.028248000000,  -0.00020,
,,,0.028252000000,  -0.00040,
,,,0.028256000000,  -0.00060,
,,,0.028260000000,  -0.00100,
,,,0.028264000000,  -0.00040,
,,,0.028268000000,  -0.00040,
,,,0.028272000000,  -0.00060,
,,,0.028276000000,  -0.00060,
,,,0.028280000000,  -0.00060,
,,,0.028284000000,  -0.00060,
,,,0.028288000000,  -0.00040,
,,,0.028292000000,  -0.00080,
,,,0.028296000000,  -0.00060,
,,,0.028300000000,  -0.00020,
,,,0.028304000000,  -0.00080,
,,,0.028308000000,  -0.00080,
,,,0.028312000000,  -0.00080,
,,,0.028316000000,  -0.00060,
,,,0.028320000000,  -0.00060,
,,,0.028324000000,  -0.00080,
,,,0.028328000000,  -0.00060,
,,,0.028332000000,  -0.00060,
,,,0.028336000000,  -0.00040,
,,,0.028340000000,  -0.00080,
,,,0.028344000000,  -0.00060,
,,,0.028348000000,  -0.00020,
,,,0.028352000000,  -0.00040,
,,,0.028356000000,  -0.00040,
,,,0.028360000000,  -0.00060,
,,,0.028364000000,  -0.00040,
,,,0.028368000000,  -0.00020,
,,,0.028372000000,  -0.00060,
,,,0.028376000000,  -0.00080,
,,,0.028380000000,  -0.00060,
,,,0.028384000000,  -0.00060,
,,,0.028388000000,  -0.00080,
,,,0.028392000000,  -0.00040,
,,,0.028396000000,  -0.00060,
,,,0.028400000000,  -0.00060,
,,,0.028404000000,  -0.00080,
,,,0.028408000000,  -0.00060,
,,,0.028412000000,  -0.00020,
,,,0.028416000000,  -0.00100,
,,,0.028420000000,  -0.00040,
,,,0.028424000000,  -0.00060,
,,,0.028428000000,  -0.00060,
,,,0.028432000000,  -0.00060,
,,,0.028436000000,  -0.00080,
,,,0.028440000000,  -0.00060,
,,,0.028444000000,  -0.00060,
,,,0.028448000000,  -0.00040,
,,,0.028452000000,  -0.00120,
,,,0.028456000000,  -0.00060,
,,,0.028460000000,  -0.00020,
,,,0.028464000000,  -0.00060,
,,,0.028468000000,  -0.00060,
,,,0.028472000000,  -0.00060,
,,,0.028476000000,  -0.00080,
,,,0.028480000000,  -0.00060,
,,,0.028484000000,  -0.00080,
,,,0.028488000000,  -0.00040,
,,,0.028492000000,  -0.00040,
,,,0.028496000000,  -0.00060,
,,,0.028500000000,  -0.00060,
,,,0.028504000000,  -0.00060,
,,,0.028508000000,  -0.00080,
,,,0.028512000000,  -0.00080,
,,,0.028516000000,  -0.00040,
,,,0.028520000000,  -0.00080,
,,,0.028524000000,  -0.00080,
,,,0.028528000000,  -0.00060,
,,,0.028532000000,  -0.00040,
,,,0.028536000000,  -0.00060,
,,,0.028540000000,  -0.00040,
,,,0.028544000000,  -0.00060,
,,,0.028548000000,  -0.00080,
,,,0.028552000000,  -0.00040,
,,,0.028556000000,  -0.00060,
,,,0.028560000000,  -0.00060,
,,,0.028564000000,  -0.00080,
,,,0.028568000000,  -0.00040,
,,,0.028572000000,  -0.00060,
,,,0.028576000000,  -0.00060,
,,,0.028580000000,  -0.00040,
,,,0.028584000000,  -0.00040,
,,,0.028588000000,  -0.00020,
,,,0.028592000000,  -0.00060,
,,,0.028596000000,  -0.00060,
,,,0.028600000000,  -0.00060,
,,,0.028604000000,  -0.00060,
,,,0.028608000000,  -0.00040,
,,,0.028612000000,  -0.00080,
,,,0.028616000000,  -0.00080,
,,,0.028620000000,  -0.00060,
,,,0.028624000000,  -0.00060,
,,,0.028628000000,  -0.00060,
,,,0.028632000000,  -0.00060,
,,,0.028636000000,  -0.00060,
,,,0.028640000000,  -0.00040,
,,,0.028644000000,  -0.00060,
,,,0.028648000000,  -0.00060,
,,,0.028652000000,  -0.00060,
,,,0.028656000000,  -0.00060,
,,,0.028660000000,  -0.00040,
,,,0.028664000000,  -0.00060,
,,,0.028668000000,  -0.00040,
,,,0.028672000000,  -0.00080,
,,,0.028676000000,  -0.00060,
,,,0.028680000000,  -0.00060,
,,,0.028684000000,  -0.00080,
,,,0.028688000000,  -0.00080,
,,,0.028692000000,  -0.00060,
,,,0.028696000000,  -0.00040,
,,,0.028700000000,  -0.00020,
,,,0.028704000000,  -0.00040,
,,,0.028708000000,  -0.00040,
,,,0.028712000000,  -0.00020,
,,,0.028716000000,  -0.00040,
,,,0.028720000000,  -0.00040,
,,,0.028724000000,  -0.00080,
,,,0.028728000000,  -0.00060,
,,,0.028732000000,  -0.00040,
,,,0.028736000000,  -0.00040,
,,,0.028740000000,  -0.00060,
,,,0.028744000000,  -0.00080,
,,,0.028748000000,  -0.00060,
,,,0.028752000000,  -0.00060,
,,,0.028756000000,  -0.00040,
,,,0.028760000000,  -0.00040,
,,,0.028764000000,  -0.00060,
,,,0.028768000000,  -0.00080,
,,,0.028772000000,  -0.00060,
,,,0.028776000000,  -0.00080,
,,,0.028780000000,  -0.00080,
,,,0.028784000000,  -0.00060,
,,,0.028788000000,  -0.00060,
,,,0.028792000000,  -0.00040,
,,,0.028796000000,  -0.00020,
,,,0.028800000000,  -0.00060,
,,,0.028804000000,  -0.00040,
,,,0.028808000000,  -0.00060,
,,,0.028812000000,  -0.00040,
,,,0.028816000000,  -0.00060,
,,,0.028820000000,  -0.00060,
,,,0.028824000000,  -0.00060,
,,,0.028828000000,  -0.00040,
,,,0.028832000000,  -0.00040,
,,,0.028836000000,  -0.00060,
,,,0.028840000000,  -0.00060,
,,,0.028844000000,  -0.00040,
,,,0.028848000000,  -0.00020,
,,,0.028852000000,  -0.00040,
,,,0.028856000000,  -0.00060,
,,,0.028860000000,  -0.00020,
,,,0.028864000000,  -0.00020,
,,,0.028868000000,  -0.00040,
,,,0.028872000000,  -0.00060,
,,,0.028876000000,  -0.00040,
,,,0.028880000000,  -0.00040,
,,,0.028884000000,  -0.00080,
,,,0.028888000000,  -0.00060,
,,,0.028892000000,  -0.00060,
,,,0.028896000000,  -0.00020,
,,,0.028900000000,  -0.00040,
,,,0.028904000000,  -0.00020,
,,,0.028908000000,  -0.00060,
,,,0.028912000000,  -0.00060,
,,,0.028916000000,  -0.00040,
,,,0.028920000000,  -0.00060,
,,,0.028924000000,  -0.00060,
,,,0.028928000000,  -0.00040,
,,,0.028932000000,  -0.00060,
,,,0.028936000000,  -0.00080,
,,,0.028940000000,  -0.00060,
,,,0.028944000000,  -0.00060,
,,,0.028948000000,  -0.00040,
,,,0.028952000000,  -0.00080,
,,,0.028956000000,  -0.00060,
,,,0.028960000000,  -0.00040,
,,,0.028964000000,  -0.00060,
,,,0.028968000000,  -0.00060,
,,,0.028972000000,  -0.00020,
,,,0.028976000000,  -0.00080,
,,,0.028980000000,  -0.00040,
,,,0.028984000000,  -0.00040,
,,,0.028988000000,  -0.00040,
,,,0.028992000000,  -0.00040,
,,,0.028996000000,  -0.00040,
,,,0.029000000000,  -0.00060,
,,,0.029004000000,  -0.00060,
,,,0.029008000000,  -0.00060,
,,,0.029012000000,  -0.00040,
,,,0.029016000000,  -0.00040,
,,,0.029020000000,  -0.00040,
,,,0.029024000000,  -0.00040,
,,,0.029028000000,  -0.00040,
,,,0.029032000000,  -0.00040,
,,,0.029036000000,  -0.00040,
,,,0.029040000000,  -0.00040,
,,,0.029044000000,  -0.00060,
,,,0.029048000000,  -0.00020,
,,,0.029052000000,   0.00000,
,,,0.029056000000,  -0.00060,
,,,0.029060000000,  -0.00060,
,,,0.029064000000,  -0.00040,
,,,0.029068000000,  -0.00060,
,,,0.029072000000,  -0.00080,
,,,0.029076000000,  -0.00060,
,,,0.029080000000,  -0.00040,
,,,0.029084000000,  -0.00060,
,,,0.029088000000,  -0.00060,
,,,0.029092000000,  -0.00020,
,,,0.029096000000,  -0.00060,
,,,0.029100000000,  -0.00040,
,,,0.029104000000,  -0.00040,
,,,0.029108000000,  -0.00060,
,,,0.029112000000,  -0.00060,
,,,0.029116000000,  -0.00060,
,,,0.029120000000,  -0.00080,
,,,0.029124000000,  -0.00060,
,,,0.029128000000,  -0.00060,
,,,0.029132000000,  -0.00040,
,,,0.029136000000,  -0.00060,
,,,0.029140000000,  -0.00020,
,,,0.029144000000,  -0.00060,
,,,0.029148000000,  -0.00040,
,,,0.029152000000,  -0.00060,
,,,0.029156000000,  -0.00040,
,,,0.029160000000,  -0.00020,
,,,0.029164000000,  -0.00040,
,,,0.029168000000,  -0.00040,
,,,0.029172000000,  -0.00040,
,,,0.029176000000,  -0.00040,
,,,0.029180000000,  -0.00060,
,,,0.029184000000,  -0.00060,
,,,0.029188000000,  -0.00060,
,,,0.029192000000,  -0.00040,
,,,0.029196000000,  -0.00060,
,,,0.029200000000,  -0.00100,
,,,0.029204000000,  -0.00060,
,,,0.029208000000,  -0.00040,
,,,0.029212000000,  -0.00060,
,,,0.029216000000,  -0.00040,
,,,0.029220000000,  -0.00060,
,,,0.029224000000,  -0.00060,
,,,0.029228000000,  -0.00040,
,,,0.029232000000,  -0.00060,
,,,0.029236000000,  -0.00060,
,,,0.029240000000,  -0.00080,
,,,0.029244000000,  -0.00060,
,,,0.029248000000,  -0.00040,
,,,0.029252000000,  -0.00040,
,,,0.029256000000,  -0.00040,
,,,0.029260000000,  -0.00040,
,,,0.029264000000,  -0.00040,
,,,0.029268000000,  -0.00040,
,,,0.029272000000,  -0.00060,
,,,0.029276000000,  -0.00040,
,,,0.029280000000,  -0.00060,
,,,0.029284000000,  -0.00040,
,,,0.029288000000,  -0.00040,
,,,0.029292000000,  -0.00020,
,,,0.029296000000,  -0.00060,
,,,0.029300000000,  -0.00080,
,,,0.029304000000,  -0.00040,
,,,0.029308000000,  -0.00020,
,,,0.029312000000,  -0.00060,
,,,0.029316000000,  -0.00060,
,,,0.029320000000,  -0.00060,
,,,0.029324000000,  -0.00060,
,,,0.029328000000,  -0.00060,
,,,0.029332000000,  -0.00060,
,,,0.029336000000,  -0.00060,
,,,0.029340000000,  -0.00060,
,,,0.029344000000,  -0.00040,
,,,0.029348000000,  -0.00080,
,,,0.029352000000,  -0.00040,
,,,0.029356000000,  -0.00040,
,,,0.029360000000,  -0.00060,
,,,0.029364000000,  -0.00040,
,,,0.029368000000,  -0.00040,
,,,0.029372000000,  -0.00080,
,,,0.029376000000,  -0.00060,
,,,0.029380000000,  -0.00080,
,,,0.029384000000,  -0.00020,
,,,0.029388000000,  -0.00060,
,,,0.029392000000,  -0.00040,
,,,0.029396000000,  -0.00080,
,,,0.029400000000,  -0.00040,
,,,0.029404000000,  -0.00040,
,,,0.029408000000,  -0.00020,
,,,0.029412000000,  -0.00060,
,,,0.029416000000,  -0.00060,
,,,0.029420000000,  -0.00040,
,,,0.029424000000,  -0.00040,
,,,0.029428000000,  -0.00040,
,,,0.029432000000,  -0.00040,
,,,0.029436000000,  -0.00080,
,,,0.029440000000,  -0.00020,
,,,0.029444000000,   0.00000,
,,,0.029448000000,  -0.00060,
,,,0.029452000000,  -0.00040,
,,,0.029456000000,  -0.00060,
,,,0.029460000000,  -0.00060,
,,,0.029464000000,  -0.00040,
,,,0.029468000000,  -0.00020,
,,,0.029472000000,  -0.00040,
,,,0.029476000000,  -0.00040,
,,,0.029480000000,  -0.00040,
,,,0.029484000000,  -0.00060,
,,,0.029488000000,  -0.00040,
,,,0.029492000000,  -0.00060,
,,,0.029496000000,  -0.00040,
,,,0.029500000000,  -0.00060,
,,,0.029504000000,  -0.00080,
,,,0.029508000000,  -0.00020,
,,,0.029512000000,  -0.00060,
,,,0.029516000000,  -0.00060,
,,,0.029520000000,  -0.00040,
,,,0.029524000000,  -0.00040,
,,,0.029528000000,  -0.00040,
,,,0.029532000000,  -0.00060,
,,,0.029536000000,  -0.00040,
,,,0.029540000000,  -0.00040,
,,,0.029544000000,  -0.00060,
,,,0.029548000000,  -0.00060,
,,,0.029552000000,  -0.00040,
,,,0.029556000000,  -0.00060,
,,,0.029560000000,  -0.00040,
,,,0.029564000000,  -0.00040,
,,,0.029568000000,  -0.00040,
,,,0.029572000000,  -0.00040,
,,,0.029576000000,  -0.00040,
,,,0.029580000000,  -0.00020,
,,,0.029584000000,  -0.00060,
,,,0.029588000000,  -0.00060,
,,,0.029592000000,  -0.00040,
,,,0.029596000000,  -0.00060,
,,,0.029600000000,  -0.00060,
,,,0.029604000000,  -0.00040,
,,,0.029608000000,  -0.00060,
,,,0.029612000000,  -0.00040,
,,,0.029616000000,  -0.00060,
,,,0.029620000000,  -0.00060,
,,,0.029624000000,  -0.00060,
,,,0.029628000000,  -0.00060,
,,,0.029632000000,  -0.00040,
,,,0.029636000000,  -0.00020,
,,,0.029640000000,  -0.00040,
,,,0.029644000000,  -0.00060,
,,,0.029648000000,  -0.00040,
,,,0.029652000000,  -0.00060,
,,,0.029656000000,  -0.00060,
,,,0.029660000000,  -0.00040,
,,,0.029664000000,  -0.00060,
,,,0.029668000000,  -0.00040,
,,,0.029672000000,  -0.00040,
,,,0.029676000000,  -0.00060,
,,,0.029680000000,  -0.00080,
,,,0.029684000000,  -0.00060,
,,,0.029688000000,  -0.00060,
,,,0.029692000000,  -0.00040,
,,,0.029696000000,  -0.00020,
,,,0.029700000000,  -0.00060,
,,,0.029704000000,  -0.00020,
,,,0.029708000000,  -0.00060,
,,,0.029712000000,  -0.00100,
,,,0.029716000000,  -0.00060,
,,,0.029720000000,  -0.00020,
,,,0.029724000000,  -0.00040,
,,,0.029728000000,  -0.00060,
,,,0.029732000000,  -0.00040,
,,,0.029736000000,  -0.00060,
,,,0.029740000000,  -0.00020,
,,,0.029744000000,  -0.00020,
,,,0.029748000000,  -0.00060,
,,,0.029752000000,  -0.00060,
,,,0.029756000000,  -0.00040,
,,,0.029760000000,  -0.00060,
,,,0.029764000000,  -0.00040,
,,,0.029768000000,  -0.00020,
,,,0.029772000000,  -0.00040,
,,,0.029776000000,  -0.00080,
,,,0.029780000000,  -0.00060,
,,,0.029784000000,  -0.00020,
,,,0.029788000000,  -0.00040,
,,,0.029792000000,  -0.00040,
,,,0.029796000000,  -0.00060,
,,,0.029800000000,  -0.00060,
,,,0.029804000000,  -0.00060,
,,,0.029808000000,  -0.00060,
,,,0.029812000000,  -0.00060,
,,,0.029816000000,  -0.00040,
,,,0.029820000000,  -0.00020,
,,,0.029824000000,  -0.00060,
,,,0.029828000000,  -0.00040,
,,,0.029832000000,  -0.00040,
,,,0.029836000000,  -0.00040,
,,,0.029840000000,  -0.00060,
,,,0.029844000000,  -0.00040,
,,,0.029848000000,  -0.00040,
,,,0.029852000000,  -0.00040,
,,,0.029856000000,  -0.00040,
,,,0.029860000000,  -0.00060,
,,,0.029864000000,  -0.00040,
,,,0.029868000000,  -0.00060,
,,,0.029872000000,  -0.00040,
,,,0.029876000000,  -0.00040,
,,,0.029880000000,  -0.00060,
,,,0.029884000000,  -0.00060,
,,,0.029888000000,  -0.00100,
,,,0.029892000000,  -0.00460,
,,,0.029896000000,  -0.00680,
,,,0.029900000000,  -0.00940,
,,,0.029904000000,  -0.00920,
,,,0.029908000000,  -0.00920,
,,,0.029912000000,  -0.00920,
,,,0.029916000000,  -0.00900,
,,,0.029920000000,  -0.00820,
,,,0.029924000000,  -0.00780,
,,,0.029928000000,  -0.00800,
,,,0.029932000000,  -0.00760,
,,,0.029936000000,  -0.00780,
,,,0.029940000000,  -0.00780,
,,,0.029944000000,  -0.00800,
,,,0.029948000000,  -0.00820,
,,,0.029952000000,  -0.00760,
,,,0.029956000000,  -0.00800,
,,,0.029960000000,  -0.00800,
,,,0.029964000000,  -0.00780,
,,,0.029968000000,  -0.00780,
,,,0.029972000000,  -0.00800,
,,,0.029976000000,  -0.00800,
,,,0.029980000000,  -0.00780,
,,,0.029984000000,  -0.00800,
,,,0.029988000000,  -0.00760,
,,,0.029992000000,  -0.00800,
,,,0.029996000000,  -0.00800,
,,,0.030000000000,  -0.00800,
,,,0.030004000000,  -0.00800,
,,,0.030008000000,  -0.00740,
,,,0.030012000000,  -0.00780,
,,,0.030016000000,  -0.00760,
,,,0.030020000000,  -0.00780,
,,,0.030024000000,  -0.00780,
,,,0.030028000000,  -0.00780,
,,,0.030032000000,  -0.00740,
,,,0.030036000000,  -0.00780,
,,,0.030040000000,  -0.00780,
,,,0.030044000000,  -0.00780,
,,,0.030048000000,  -0.00780,
,,,0.030052000000,  -0.00780,
,,,0.030056000000,  -0.00800,
,,,0.030060000000,  -0.00780,
,,,0.030064000000,  -0.00780,
,,,0.030068000000,  -0.00780,
,,,0.030072000000,  -0.00780,
,,,0.030076000000,  -0.00780,
,,,0.030080000000,  -0.00780,
,,,0.030084000000,  -0.00760,
,,,0.030088000000,  -0.00780,
,,,0.030092000000,  -0.00740,
,,,0.030096000000,  -0.00780,
,,,0.030100000000,  -0.00780,
,,,0.030104000000,  -0.00760,
,,,0.030108000000,  -0.00780,
,,,0.030112000000,  -0.00760,
,,,0.030116000000,  -0.00780,
,,,0.030120000000,  -0.00760,
,,,0.030124000000,  -0.00760,
,,,0.030128000000,  -0.00760,
,,,0.030132000000,  -0.00780,
,,,0.030136000000,  -0.00740,
,,,0.030140000000,  -0.00780,
,,,0.030144000000,  -0.00760,
,,,0.030148000000,  -0.00780,
,,,0.030152000000,  -0.00780,
,,,0.030156000000,  -0.00780,
,,,0.030160000000,  -0.00780,
,,,0.030164000000,  -0.00740,
,,,0.030168000000,  -0.00720,
,,,0.030172000000,  -0.00740,
