ex1_nmr/paramagnetic_data/TEK0075.CSV

Record Length,2.500000e+03,,   0.077280000000,   0.00000,
Sample Interval,4.000000e-06,,   0.077284000000,   0.00000,
Trigger Point,-1.932000000000e+04,,   0.077288000000,  -0.00020,
,,,   0.077292000000,   0.00020,
,,,   0.077296000000,   0.00000,
,,,   0.077300000000,  -0.00020,
Source,CH2,,   0.077304000000,  -0.00020,
Vertical Units,V,,   0.077308000000,   0.00020,
Vertical Scale,5.000000e-03,,   0.077312000000,   0.00000,
Vertical Offset,0.000000e+00,,   0.077316000000,   0.00000,
Horizontal Units,s,,   0.077320000000,  -0.00040,
Horizontal Scale,1.000000e-03,,   0.077324000000,   0.00000,
Pt Fmt,Y,,   0.077328000000,   0.00020,
Yzero,0.000000e+00,,   0.077332000000,   0.00000,
Probe Atten,1.000000e+00,,   0.077336000000,   0.00020,
Model Number,TDS2014C,,   0.077340000000,   0.00000,
Serial Number,C031611,,   0.077344000000,   0.00040,
Firmware Version,FV:v24.26,,   0.077348000000,   0.00020,
,,,0.077352000000,   0.00020,
,,,0.077356000000,  -0.00020,
,,,0.077360000000,  -0.00020,
,,,0.077364000000,   0.00000,
,,,0.077368000000,  -0.00020,
,,,0.077372000000,  -0.00020,
,,,0.077376000000,   0.00000,
,,,0.077380000000,  -0.00020,
,,,0.077384000000,  -0.00020,
,,,0.077388000000,  -0.00020,
,,,0.077392000000,   0.00020,
,,,0.077396000000,  -0.00040,
,,,0.077400000000,   0.00000,
,,,0.077404000000,   0.00000,
,,,0.077408000000,  -0.00020,
,,,0.077412000000,   0.00000,
,,,0.077416000000,  -0.00020,
,,,0.077420000000,   0.00000,
,,,0.077424000000,   0.00000,
,,,0.077428000000,   0.00000,
,,,0.077432000000,   0.00040,
,,,0.077436000000,   0.00000,
,,,0.077440000000,  -0.00020,
,,,0.077444000000,  -0.00020,
,,,0.077448000000,  -0.00020,
,,,0.077452000000,   0.00020,
,,,0.077456000000,   0.00000,
,,,0.077460000000,  -0.00040,
,,,0.077464000000,  -0.00020,
,,,0.077468000000,   0.00020,
,,,0.077472000000,  -0.00020,
,,,0.077476000000,  -0.00020,
,,,0.077480000000,   0.00020,
,,,0.077484000000,  -0.00040,
,,,0.077488000000,  -0.00020,
,,,0.077492000000,  -0.00020,
,,,0.077496000000,  -0.00040,
,,,0.077500000000,  -0.00020,
,,,0.077504000000,  -0.00020,
,,,0.077508000000,  -0.00020,
,,,0.077512000000,  -0.00020,
,,,0.077516000000,   0.00000,
,,,0.077520000000,   0.00020,
,,,0.077524000000,  -0.00020,
,,,0.077528000000,   0.00040,
,,,0.077532000000,  -0.00020,
,,,0.077536000000,   0.00000,
,,,0.077540000000,   0.00020,
,,,0.077544000000,   0.00020,
,,,0.077548000000,   0.00000,
,,,0.077552000000,  -0.00020,
,,,0.077556000000,   0.00000,
,,,0.077560000000,   0.00020,
,,,0.077564000000,   0.00000,
,,,0.077568000000,  -0.00040,
,,,0.077572000000,   0.00000,
,,,0.077576000000,   0.00020,
,,,0.077580000000,   0.00020,
,,,0.077584000000,  -0.00020,
,,,0.077588000000,   0.00000,
,,,0.077592000000,   0.00020,
,,,0.077596000000,   0.00020,
,,,0.077600000000,  -0.00020,
,,,0.077604000000,   0.00000,
,,,0.077608000000,  -0.00020,
,,,0.077612000000,   0.00000,
,,,0.077616000000,  -0.00020,
,,,0.077620000000,   0.00020,
,,,0.077624000000,   0.00040,
,,,0.077628000000,   0.00000,
,,,0.077632000000,   0.00000,
,,,0.077636000000,  -0.00040,
,,,0.077640000000,  -0.00020,
,,,0.077644000000,   0.00020,
,,,0.077648000000,  -0.00020,
,,,0.077652000000,   0.00000,
,,,0.077656000000,   0.00000,
,,,0.077660000000,   0.00000,
,,,0.077664000000,  -0.00020,
,,,0.077668000000,   0.00000,
,,,0.077672000000,   0.00000,
,,,0.077676000000,   0.00000,
,,,0.077680000000,   0.00000,
,,,0.077684000000,   0.00000,
,,,0.077688000000,  -0.00020,
,,,0.077692000000,  -0.00020,
,,,0.077696000000,  -0.00020,
,,,0.077700000000,  -0.00020,
,,,0.077704000000,   0.00000,
,,,0.077708000000,   0.00020,
,,,0.077712000000,   0.00000,
,,,0.077716000000,   0.00020,
,,,0.077720000000,   0.00000,
,,,0.077724000000,   0.00000,
,,,0.077728000000,   0.00020,
,,,0.077732000000,   0.00020,
,,,0.077736000000,  -0.00020,
,,,0.077740000000,   0.00000,
,,,0.077744000000,   0.00000,
,,,0.077748000000,  -0.00020,
,,,0.077752000000,  -0.00020,
,,,0.077756000000,   0.00040,
,,,0.077760000000,  -0.00020,
,,,0.077764000000,  -0.00040,
,,,0.077768000000,   0.00000,
,,,0.077772000000,  -0.00020,
,,,0.077776000000,   0.00000,
,,,0.077780000000,   0.00020,
,,,0.077784000000,   0.00000,
,,,0.077788000000,  -0.00020,
,,,0.077792000000,  -0.00020,
,,,0.077796000000,   0.00000,
,,,0.077800000000,  -0.00020,
,,,0.077804000000,   0.00000,
,,,0.077808000000,   0.00020,
,,,0.077812000000,  -0.00020,
,,,0.077816000000,  -0.00040,
,,,0.077820000000,  -0.00020,
,,,0.077824000000,   0.00020,
,,,0.077828000000,   0.00000,
,,,0.077832000000,   0.00000,
,,,0.077836000000,   0.00000,
,,,0.077840000000,   0.00000,
,,,0.077844000000,   0.00000,
,,,0.077848000000,   0.00000,
,,,0.077852000000,   0.00000,
,,,0.077856000000,   0.00020,
,,,0.077860000000,   0.00020,
,,,0.077864000000,   0.00000,
,,,0.077868000000,   0.00000,
,,,0.077872000000,   0.00040,
,,,0.077876000000,   0.00000,
,,,0.077880000000,   0.00020,
,,,0.077884000000,  -0.00020,
,,,0.077888000000,   0.00020,
,,,0.077892000000,  -0.00020,
,,,0.077896000000,   0.00000,
,,,0.077900000000,  -0.00040,
,,,0.077904000000,   0.00000,
,,,0.077908000000,   0.00000,
,,,0.077912000000,   0.00020,
,,,0.077916000000,   0.00000,
,,,0.077920000000,   0.00000,
,,,0.077924000000,   0.00000,
,,,0.077928000000,   0.00020,
,,,0.077932000000,  -0.00020,
,,,0.077936000000,  -0.00020,
,,,0.077940000000,  -0.00020,
,,,0.077944000000,  -0.00020,
,,,0.077948000000,  -0.00040,
,,,0.077952000000,  -0.00040,
,,,0.077956000000,   0.00000,
,,,0.077960000000,   0.00020,
,,,0.077964000000,  -0.00020,
,,,0.077968000000,  -0.00020,
,,,0.077972000000,   0.00000,
,,,0.077976000000,  -0.00020,
,,,0.077980000000,   0.00000,
,,,0.077984000000,   0.00040,
,,,0.077988000000,  -0.00020,
,,,0.077992000000,   0.00000,
,,,0.077996000000,  -0.00040,
,,,0.078000000000,  -0.00020,
,,,0.078004000000,  -0.00020,
,,,0.078008000000,   0.00020,
,,,0.078012000000,   0.00020,
,,,0.078016000000,  -0.00040,
,,,0.078020000000,   0.00020,
,,,0.078024000000,  -0.00020,
,,,0.078028000000,   0.00020,
,,,0.078032000000,   0.00000,
,,,0.078036000000,   0.00000,
,,,0.078040000000,  -0.00020,
,,,0.078044000000,  -0.00020,
,,,0.078048000000,  -0.00040,
,,,0.078052000000,   0.00000,
,,,0.078056000000,   0.00000,
,,,0.078060000000,  -0.00020,
,,,0.078064000000,  -0.00020,
,,,0.078068000000,  -0.00020,
,,,0.078072000000,   0.00020,
,,,0.078076000000,  -0.00020,
,,,0.078080000000,  -0.00020,
,,,0.078084000000,   0.00000,
,,,0.078088000000,   0.00020,
,,,0.078092000000,  -0.00020,
,,,0.078096000000,   0.00000,
,,,0.078100000000,   0.00020,
,,,0.078104000000,  -0.00020,
,,,0.078108000000,  -0.00020,
,,,0.078112000000,  -0.00020,
,,,0.078116000000,   0.00020,
,,,0.078120000000,   0.00020,
,,,0.078124000000,   0.00020,
,,,0.078128000000,   0.00000,
,,,0.078132000000,  -0.00020,
,,,0.078136000000,   0.00000,
,,,0.078140000000,   0.00000,
,,,0.078144000000,  -0.00020,
,,,0.078148000000,   0.00020,
,,,0.078152000000,   0.00020,
,,,0.078156000000,   0.00000,
,,,0.078160000000,  -0.00020,
,,,0.078164000000,  -0.00020,
,,,0.078168000000,  -0.00020,
,,,0.078172000000,   0.00000,
,,,0.078176000000,  -0.00020,
,,,0.078180000000,   0.00000,
,,,0.078184000000,   0.00000,
,,,0.078188000000,  -0.00020,
,,,0.078192000000,   0.00020,
,,,0.078196000000,   0.00000,
,,,0.078200000000,   0.00000,
,,,0.078204000000,  -0.00020,
,,,0.078208000000,   0.00000,
,,,0.078212000000,   0.00020,
,,,0.078216000000,  -0.00020,
,,,0.078220000000,  -0.00040,
,,,0.078224000000,   0.00000,
,,,0.078228000000,   0.00000,
,,,0.078232000000,   0.00000,
,,,0.078236000000,  -0.00060,
,,,0.078240000000,   0.00020,
,,,0.078244000000,   0.00000,
,,,0.078248000000,  -0.00020,
,,,0.078252000000,  -0.00020,
,,,0.078256000000,  -0.00020,
,,,0.078260000000,   0.00000,
,,,0.078264000000,   0.00000,
,,,0.078268000000,   0.00000,
,,,0.078272000000,  -0.00020,
,,,0.078276000000,  -0.00020,
,,,0.078280000000,   0.00000,
,,,0.078284000000,   0.00000,
,,,0.078288000000,   0.00020,
,,,0.078292000000,   0.00000,
,,,0.078296000000,  -0.00020,
,,,0.078300000000,  -0.00020,
,,,0.078304000000,   0.00000,
,,,0.078308000000,  -0.00020,
,,,0.078312000000,   0.00020,
,,,0.078316000000,   0.00020,
,,,0.078320000000,  -0.00020,
,,,0.078324000000,   0.00020,
,,,0.078328000000,   0.00000,
,,,0.078332000000,   0.00000,
,,,0.078336000000,  -0.00020,
,,,0.078340000000,   0.00000,
,,,0.078344000000,  -0.00020,
,,,0.078348000000,  -0.00020,
,,,0.078352000000,  -0.00020,
,,,0.078356000000,  -0.00040,
,,,0.078360000000,  -0.00020,
,,,0.078364000000,   0.00000,
,,,0.078368000000,   0.00000,
,,,0.078372000000,   0.00000,
,,,0.078376000000,   0.00000,
,,,0.078380000000,  -0.00020,
,,,0.078384000000,   0.00000,
,,,0.078388000000,   0.00020,
,,,0.078392000000,  -0.00020,
,,,0.078396000000,   0.00000,
,,,0.078400000000,   0.00000,
,,,0.078404000000,  -0.00020,
,,,0.078408000000,  -0.00020,
,,,0.078412000000,   0.00000,
,,,0.078416000000,   0.00000,
,,,0.078420000000,   0.00020,
,,,0.078424000000,  -0.00020,
,,,0.078428000000,   0.00000,
,,,0.078432000000,   0.00000,
,,,0.078436000000,   0.00000,
,,,0.078440000000,   0.00020,
,,,0.078444000000,  -0.00020,
,,,0.078448000000,  -0.00020,
,,,0.078452000000,  -0.00020,
,,,0.078456000000,   0.00000,
,,,0.078460000000,  -0.00020,
,,,0.078464000000,  -0.00020,
,,,0.078468000000,  -0.00020,
,,,0.078472000000,   0.00020,
,,,0.078476000000,   0.00000,
,,,0.078480000000,  -0.00020,
,,,0.078484000000,  -0.00040,
,,,0.078488000000,   0.00020,
,,,0.078492000000,  -0.00040,
,,,0.078496000000,   0.00000,
,,,0.078500000000,   0.00020,
,,,0.078504000000,   0.00000,
,,,0.078508000000,   0.00020,
,,,0.078512000000,  -0.00020,
,,,0.078516000000,  -0.00020,
,,,0.078520000000,  -0.00020,
,,,0.078524000000,   0.00020,
,,,0.078528000000,  -0.00020,
,,,0.078532000000,  -0.00020,
,,,0.078536000000,   0.00000,
,,,0.078540000000,   0.00000,
,,,0.078544000000,   0.00000,
,,,0.078548000000,   0.00020,
,,,0.078552000000,   0.00020,
,,,0.078556000000,   0.00000,
,,,0.078560000000,  -0.00020,
,,,0.078564000000,   0.00000,
,,,0.078568000000,  -0.00020,
,,,0.078572000000,   0.00000,
,,,0.078576000000,   0.00020,
,,,0.078580000000,   0.00040,
,,,0.078584000000,  -0.00020,
,,,0.078588000000,  -0.00020,
,,,0.078592000000,   0.00000,
,,,0.078596000000,  -0.00020,
,,,0.078600000000,   0.00000,
,,,0.078604000000,   0.00000,
,,,0.078608000000,   0.00000,
,,,0.078612000000,   0.00000,
,,,0.078616000000,  -0.00020,
,,,0.078620000000,  -0.00020,
,,,0.078624000000,  -0.00020,
,,,0.078628000000,  -0.00020,
,,,0.078632000000,  -0.00040,
,,,0.078636000000,  -0.00020,
,,,0.078640000000,  -0.00020,
,,,0.078644000000,   0.00000,
,,,0.078648000000,   0.00000,
,,,0.078652000000,  -0.00020,
,,,0.078656000000,   0.00020,
,,,0.078660000000,   0.00000,
,,,0.078664000000,   0.00000,
,,,0.078668000000,  -0.00020,
,,,0.078672000000,  -0.00020,
,,,0.078676000000,   0.00000,
,,,0.078680000000,   0.00020,
,,,0.078684000000,  -0.00040,
,,,0.078688000000,   0.00000,
,,,0.078692000000,  -0.00020,
,,,0.078696000000,   0.00020,
,,,0.078700000000,  -0.00020,
,,,0.078704000000,  -0.00020,
,,,0.078708000000,   0.00020,
,,,0.078712000000,   0.00000,
,,,0.078716000000,   0.00000,
,,,0.078720000000,   0.00020,
,,,0.078724000000,   0.00000,
,,,0.078728000000,  -0.00020,
,,,0.078732000000,   0.00000,
,,,0.078736000000,   0.00020,
,,,0.078740000000,   0.00000,
,,,0.078744000000,   0.00000,
,,,0.078748000000,  -0.00020,
,,,0.078752000000,   0.00020,
,,,0.078756000000,   0.00000,
,,,0.078760000000,  -0.00020,
,,,0.078764000000,  -0.00020,
,,,0.078768000000,   0.00020,
,,,0.078772000000,   0.00000,
,,,0.078776000000,   0.00020,
,,,0.078780000000,   0.00000,
,,,0.078784000000,  -0.00020,
,,,0.078788000000,   0.00000,
,,,0.078792000000,  -0.00020,
,,,0.078796000000,   0.00020,
,,,0.078800000000,  -0.00020,
,,,0.078804000000,  -0.00020,
,,,0.078808000000,   0.00000,
,,,0.078812000000,   0.00000,
,,,0.078816000000,   0.00020,
,,,0.078820000000,   0.00000,
,,,0.078824000000,   0.00000,
,,,0.078828000000,  -0.00020,
,,,0.078832000000,   0.00000,
,,,0.078836000000,   0.00000,
,,,0.078840000000,   0.00000,
,,,0.078844000000,   0.00000,
,,,0.078848000000,   0.00000,
,,,0.078852000000,  -0.00020,
,,,0.078856000000,  -0.00040,
,,,0.078860000000,   0.00000,
,,,0.078864000000,  -0.00040,
,,,0.078868000000,  -0.00020,
,,,0.078872000000,   0.00020,
,,,0.078876000000,  -0.00020,
,,,0.078880000000,   0.00000,
,,,0.078884000000,  -0.00020,
,,,0.078888000000,   0.00000,
,,,0.078892000000,   0.00020,
,,,0.078896000000,   0.00000,
,,,0.078900000000,   0.00020,
,,,0.078904000000,   0.00000,
,,,0.078908000000,  -0.00020,
,,,0.078912000000,   0.00020,
,,,0.078916000000,   0.00000,
,,,0.078920000000,   0.00000,
,,,0.078924000000,  -0.00020,
,,,0.078928000000,   0.00000,
,,,0.078932000000,  -0.00020,
,,,0.078936000000,   0.00020,
,,,0.078940000000,   0.00000,
,,,0.078944000000,   0.00020,
,,,0.078948000000,  -0.00020,
,,,0.078952000000,   0.00020,
,,,0.078956000000,   0.00000,
,,,0.078960000000,   0.00000,
,,,0.078964000000,   0.00000,
,,,0.078968000000,   0.00000,
,,,0.078972000000,   0.00020,
,,,0.078976000000,   0.00020,
,,,0.078980000000,   0.00000,
,,,0.078984000000,   0.00020,
,,,0.078988000000,   0.00000,
,,,0.078992000000,   0.00000,
,,,0.078996000000,   0.00000,
,,,0.079000000000,   0.00000,
,,,0.079004000000,   0.00000,
,,,0.079008000000,  -0.00020,
,,,0.079012000000,  -0.00020,
,,,0.079016000000,   0.00020,
,,,0.079020000000,   0.00020,
,,,0.079024000000,   0.00020,
,,,0.079028000000,  -0.00020,
,,,0.079032000000,  -0.00020,
,,,0.079036000000,   0.00000,
,,,0.079040000000,  -0.00040,
,,,0.079044000000,   0.00020,
,,,0.079048000000,   0.00000,
,,,0.079052000000,  -0.00040,
,,,0.079056000000,   0.00000,
,,,0.079060000000,  -0.00040,
,,,0.079064000000,   0.00000,
,,,0.079068000000,  -0.00020,
,,,0.079072000000,   0.00000,
,,,0.079076000000,  -0.00020,
,,,0.079080000000,  -0.00020,
,,,0.079084000000,  -0.00020,
,,,0.079088000000,  -0.00020,
,,,0.079092000000,   0.00000,
,,,0.079096000000,   0.00020,
,,,0.079100000000,   0.00040,
,,,0.079104000000,  -0.00020,
,,,0.079108000000,  -0.00020,
,,,0.079112000000,   0.00000,
,,,0.079116000000,  -0.00020,
,,,0.079120000000,  -0.00020,
,,,0.079124000000,   0.00000,
,,,0.079128000000,   0.00020,
,,,0.079132000000,   0.00000,
,,,0.079136000000,   0.00020,
,,,0.079140000000,  -0.00040,
,,,0.079144000000,   0.00020,
,,,0.079148000000,   0.00020,
,,,0.079152000000,   0.00020,
,,,0.079156000000,   0.00000,
,,,0.079160000000,   0.00000,
,,,0.079164000000,  -0.00020,
,,,0.079168000000,  -0.00020,
,,,0.079172000000,  -0.00020,
,,,0.079176000000,  -0.00020,
,,,0.079180000000,   0.00000,
,,,0.079184000000,   0.00000,
,,,0.079188000000,   0.00000,
,,,0.079192000000,   0.00000,
,,,0.079196000000,   0.00000,
,,,0.079200000000,   0.00000,
,,,0.079204000000,  -0.00040,
,,,0.079208000000,   0.00020,
,,,0.079212000000,  -0.00020,
,,,0.079216000000,   0.00000,
,,,0.079220000000,  -0.00020,
,,,0.079224000000,  -0.00020,
,,,0.079228000000,  -0.00020,
,,,0.079232000000,  -0.00020,
,,,0.079236000000,  -0.00020,
,,,0.079240000000,  -0.00020,
,,,0.079244000000,   0.00000,
,,,0.079248000000,   0.00020,
,,,0.079252000000,  -0.00020,
,,,0.079256000000,   0.00000,
,,,0.079260000000,  -0.00020,
,,,0.079264000000,   0.00000,
,,,0.079268000000,   0.00000,
,,,0.079272000000,  -0.00040,
,,,0.079276000000,  -0.00020,
,,,0.079280000000,  -0.00020,
,,,0.079284000000,   0.00000,
,,,0.079288000000,   0.00000,
,,,0.079292000000,   0.00020,
,,,0.079296000000,   0.00000,
,,,0.079300000000,   0.00000,
,,,0.079304000000,   0.00000,
,,,0.079308000000,   0.00020,
,,,0.079312000000,   0.00020,
,,,0.079316000000,   0.00020,
,,,0.079320000000,   0.00020,
,,,0.079324000000,   0.00000,
,,,0.079328000000,  -0.00020,
,,,0.079332000000,   0.00000,
,,,0.079336000000,   0.00020,
,,,0.079340000000,  -0.00020,
,,,0.079344000000,  -0.00020,
,,,0.079348000000,  -0.00020,
,,,0.079352000000,   0.00000,
,,,0.079356000000,   0.00000,
,,,0.079360000000,   0.00000,
,,,0.079364000000,   0.00000,
,,,0.079368000000,  -0.00040,
,,,0.079372000000,   0.00020,
,,,0.079376000000,  -0.00020,
,,,0.079380000000,   0.00020,
,,,0.079384000000,  -0.00020,
,,,0.079388000000,   0.00020,
,,,0.079392000000,  -0.00020,
,,,0.079396000000,   0.00000,
,,,0.079400000000,   0.00020,
,,,0.079404000000,  -0.00020,
,,,0.079408000000,   0.00020,
,,,0.079412000000,   0.00000,
,,,0.079416000000,   0.00000,
,,,0.079420000000,   0.00000,
,,,0.079424000000,  -0.00020,
,,,0.079428000000,   0.00000,
,,,0.079432000000,  -0.00020,
,,,0.079436000000,   0.00000,
,,,0.079440000000,  -0.00020,
,,,0.079444000000,   0.00000,
,,,0.079448000000,   0.00000,
,,,0.079452000000,   0.00000,
,,,0.079456000000,   0.00000,
,,,0.079460000000,   0.00000,
,,,0.079464000000,   0.00040,
,,,0.079468000000,  -0.00020,
,,,0.079472000000,   0.00000,
,,,0.079476000000,   0.00000,
,,,0.079480000000,  -0.00020,
,,,0.079484000000,  -0.00020,
,,,0.079488000000,   0.00000,
,,,0.079492000000,   0.00000,
,,,0.079496000000,  -0.00040,
,,,0.079500000000,  -0.00020,
,,,0.079504000000,   0.00000,
,,,0.079508000000,   0.00000,
,,,0.079512000000,   0.00020,
,,,0.079516000000,  -0.00020,
,,,0.079520000000,   0.00020,
,,,0.079524000000,   0.00000,
,,,0.079528000000,   0.00020,
,,,0.079532000000,   0.00020,
,,,0.079536000000,   0.00020,
,,,0.079540000000,   0.00000,
,,,0.079544000000,  -0.00020,
,,,0.079548000000,  -0.00020,
,,,0.079552000000,  -0.00020,
,,,0.079556000000,  -0.00020,
,,,0.079560000000,  -0.00020,
,,,0.079564000000,   0.00000,
,,,0.079568000000,  -0.00020,
,,,0.079572000000,  -0.00020,
,,,0.079576000000,  -0.00020,
,,,0.079580000000,   0.00000,
,,,0.079584000000,   0.00000,
,,,0.079588000000,  -0.00020,
,,,0.079592000000,  -0.00060,
,,,0.079596000000,  -0.00020,
,,,0.079600000000,   0.00020,
,,,0.079604000000,   0.00000,
,,,0.079608000000,  -0.00020,
,,,0.079612000000,  -0.00020,
,,,0.079616000000,   0.00000,
,,,0.079620000000,   0.00000,
,,,0.079624000000,   0.00000,
,,,0.079628000000,  -0.00020,
,,,0.079632000000,   0.00000,
,,,0.079636000000,  -0.00020,
,,,0.079640000000,   0.00020,
,,,0.079644000000,   0.00040,
,,,0.079648000000,   0.00020,
,,,0.079652000000,   0.00020,
,,,0.079656000000,   0.00000,
,,,0.079660000000,   0.00000,
,,,0.079664000000,  -0.00020,
,,,0.079668000000,  -0.00040,
,,,0.079672000000,   0.00000,
,,,0.079676000000,   0.00000,
,,,0.079680000000,  -0.00020,
,,,0.079684000000,   0.00000,
,,,0.079688000000,   0.00000,
,,,0.079692000000,   0.00020,
,,,0.079696000000,   0.00020,
,,,0.079700000000,   0.00020,
,,,0.079704000000,   0.00000,
,,,0.079708000000,   0.00000,
,,,0.079712000000,  -0.00020,
,,,0.079716000000,   0.00000,
,,,0.079720000000,   0.00000,
,,,0.079724000000,  -0.00040,
,,,0.079728000000,   0.00000,
,,,0.079732000000,   0.00000,
,,,0.079736000000,  -0.00020,
,,,0.079740000000,   0.00000,
,,,0.079744000000,   0.00000,
,,,0.079748000000,   0.00000,
,,,0.079752000000,   0.00020,
,,,0.079756000000,   0.00000,
,,,0.079760000000,   0.00000,
,,,0.079764000000,   0.00020,
,,,0.079768000000,  -0.00020,
,,,0.079772000000,  -0.00020,
,,,0.079776000000,  -0.00020,
,,,0.079780000000,   0.00000,
,,,0.079784000000,  -0.00040,
,,,0.079788000000,   0.00000,
,,,0.079792000000,  -0.00020,
,,,0.079796000000,   0.00000,
,,,0.079800000000,   0.00000,
,,,0.079804000000,   0.00000,
,,,0.079808000000,  -0.00040,
,,,0.079812000000,  -0.00040,
,,,0.079816000000,   0.00020,
,,,0.079820000000,  -0.00020,
,,,0.079824000000,  -0.00020,
,,,0.079828000000,   0.00020,
,,,0.079832000000,  -0.00020,
,,,0.079836000000,   0.00020,
,,,0.079840000000,  -0.00040,
,,,0.079844000000,   0.00020,
,,,0.079848000000,  -0.00020,
,,,0.079852000000,  -0.00060,
,,,0.079856000000,  -0.00420,
,,,0.079860000000,  -0.00680,
,,,0.079864000000,  -0.00900,
,,,0.079868000000,  -0.00840,
,,,0.079872000000,  -0.00800,
,,,0.079876000000,  -0.00840,
,,,0.079880000000,  -0.00880,
,,,0.079884000000,  -0.01000,
,,,0.079888000000,  -0.01020,
,,,0.079892000000,  -0.01080,
