ex1_nmr/glycerin_data/TEK0013.CSV

Record Length,2.500000e+03,,  -0.002800000000,   0.01360,
Sample Interval,1.000000e-05,,  -0.002790000000,   0.01520,
Trigger Point,2.800000000000e+02,,  -0.002780000000,   0.01760,
,,,  -0.002770000000,   0.01520,
,,,  -0.002760000000,   0.01760,
,,,  -0.002750000000,   0.01680,
Source,CH2,,  -0.002740000000,   0.01760,
Vertical Units,V,,  -0.002730000000,   0.01760,
Vertical Scale,2.000000e-02,,  -0.002720000000,   0.01440,
Vertical Offset,-2.160000e-02,,  -0.002710000000,   0.01760,
Horizontal Units,s,,  -0.002700000000,   0.01680,
Horizontal Scale,2.500000e-03,,  -0.002690000000,   0.01760,
Pt Fmt,Y,,  -0.002680000000,   0.01680,
Yzero,0.000000e+00,,  -0.002670000000,   0.01760,
Probe Atten,1.000000e+00,,  -0.002660000000,   0.01600,
Model Number,TDS2014C,,  -0.002650000000,   0.01680,
Serial Number,C031616,,  -0.002640000000,   0.01280,
Firmware Version,FV:v24.26,,  -0.002630000000,   0.01680,
,,,-00.002620000000,   0.01600,
,,,-00.002610000000,   0.01680,
,,,-00.002600000000,   0.01760,
,,,-00.002590000000,   0.01760,
,,,-00.002580000000,   0.01760,
,,,-00.002570000000,   0.01600,
,,,-00.002560000000,   0.01680,
,,,-00.002550000000,   0.01680,
,,,-00.002540000000,   0.01600,
,,,-00.002530000000,   0.01760,
,,,-00.002520000000,   0.01520,
,,,-00.002510000000,   0.01680,
,,,-00.002500000000,   0.01840,
,,,-00.002490000000,   0.01680,
,,,-00.002480000000,   0.01680,
,,,-00.002470000000,   0.01680,
,,,-00.002460000000,   0.01600,
,,,-00.002450000000,   0.01680,
,,,-00.002440000000,   0.01760,
,,,-00.002430000000,   0.01600,
,,,-00.002420000000,   0.01440,
,,,-00.002410000000,   0.01520,
,,,-00.002400000000,   0.01680,
,,,-00.002390000000,   0.01440,
,,,-00.002380000000,   0.01440,
,,,-00.002370000000,   0.01520,
,,,-00.002360000000,   0.01440,
,,,-00.002350000000,   0.01520,
,,,-00.002340000000,   0.01440,
,,,-00.002330000000,   0.01600,
,,,-00.002320000000,   0.01600,
,,,-00.002310000000,   0.01600,
,,,-00.002300000000,   0.01680,
,,,-00.002290000000,   0.01760,
,,,-00.002280000000,   0.01680,
,,,-00.002270000000,   0.01600,
,,,-00.002260000000,   0.02000,
,,,-00.002250000000,   0.01600,
,,,-00.002240000000,   0.01680,
,,,-00.002230000000,   0.01760,
,,,-00.002220000000,   0.01600,
,,,-00.002210000000,   0.01600,
,,,-00.002200000000,   0.01440,
,,,-00.002190000000,   0.01600,
,,,-00.002180000000,   0.01600,
,,,-00.002170000000,   0.01600,
,,,-00.002160000000,   0.01600,
,,,-00.002150000000,   0.01600,
,,,-00.002140000000,   0.01440,
,,,-00.002130000000,   0.01520,
,,,-00.002120000000,   0.01440,
,,,-00.002110000000,   0.01680,
,,,-00.002100000000,   0.01600,
,,,-00.002090000000,   0.01600,
,,,-00.002080000000,   0.01760,
,,,-00.002070000000,   0.01520,
,,,-00.002060000000,   0.01600,
,,,-00.002050000000,   0.01520,
,,,-00.002040000000,   0.01680,
,,,-00.002030000000,   0.01760,
,,,-00.002020000000,   0.01680,
,,,-00.002010000000,   0.01760,
,,,-00.002000000000,   0.01840,
,,,-00.001990000000,   0.01840,
,,,-00.001980000000,   0.01680,
,,,-00.001970000000,   0.01760,
,,,-00.001960000000,   0.01680,
,,,-00.001950000000,   0.01600,
,,,-00.001940000000,   0.01760,
,,,-00.001930000000,   0.01600,
,,,-00.001920000000,   0.01520,
,,,-00.001910000000,   0.01600,
,,,-00.001900000000,   0.01600,
,,,-00.001890000000,   0.01520,
,,,-00.001880000000,   0.01520,
,,,-00.001870000000,   0.01520,
,,,-00.001860000000,   0.01600,
,,,-00.001850000000,   0.01520,
,,,-00.001840000000,   0.01600,
,,,-00.001830000000,   0.01600,
,,,-00.001820000000,   0.01520,
,,,-00.001810000000,   0.01600,
,,,-00.001800000000,   0.01600,
,,,-00.001790000000,   0.01760,
,,,-00.001780000000,   0.01680,
,,,-00.001770000000,   0.01760,
,,,-00.001760000000,   0.01840,
,,,-00.001750000000,   0.01760,
,,,-00.001740000000,   0.01840,
,,,-00.001730000000,   0.01680,
,,,-00.001720000000,   0.01600,
,,,-00.001710000000,   0.01600,
,,,-00.001700000000,   0.01600,
,,,-00.001690000000,   0.01680,
,,,-00.001680000000,   0.01600,
,,,-00.001670000000,   0.01600,
,,,-00.001660000000,   0.01680,
,,,-00.001650000000,   0.01520,
,,,-00.001640000000,   0.01600,
,,,-00.001630000000,   0.01600,
,,,-00.001620000000,   0.01440,
,,,-00.001610000000,   0.01520,
,,,-00.001600000000,   0.01600,
,,,-00.001590000000,   0.01520,
,,,-00.001580000000,   0.01520,
,,,-00.001570000000,   0.01680,
,,,-00.001560000000,   0.01600,
,,,-00.001550000000,   0.01360,
,,,-00.001540000000,   0.01760,
,,,-00.001530000000,   0.01840,
,,,-00.001520000000,   0.01760,
,,,-00.001510000000,   0.01840,
,,,-00.001500000000,   0.01760,
,,,-00.001490000000,   0.01760,
,,,-00.001480000000,   0.01840,
,,,-00.001470000000,   0.01680,
,,,-00.001460000000,   0.01760,
,,,-00.001450000000,   0.01600,
,,,-00.001440000000,   0.01600,
,,,-00.001430000000,   0.01760,
,,,-00.001420000000,   0.01520,
,,,-00.001410000000,   0.01600,
,,,-00.001400000000,   0.01680,
,,,-00.001390000000,   0.01520,
,,,-00.001380000000,   0.01600,
,,,-00.001370000000,   0.01600,
,,,-00.001360000000,   0.01680,
,,,-00.001350000000,   0.01680,
,,,-00.001340000000,   0.01680,
,,,-00.001330000000,   0.01760,
,,,-00.001320000000,   0.01680,
,,,-00.001310000000,   0.01600,
,,,-00.001300000000,   0.01760,
,,,-00.001290000000,   0.01600,
,,,-00.001280000000,   0.01600,
,,,-00.001270000000,   0.01600,
,,,-00.001260000000,   0.01760,
,,,-00.001250000000,   0.01680,
,,,-00.001240000000,   0.01680,
,,,-00.001230000000,   0.01760,
,,,-00.001220000000,   0.01840,
,,,-00.001210000000,   0.01760,
,,,-00.001200000000,   0.01920,
,,,-00.001190000000,   0.01360,
,,,-00.001180000000,   0.01680,
,,,-00.001170000000,   0.01440,
,,,-00.001160000000,   0.01520,
,,,-00.001150000000,   0.01520,
,,,-00.001140000000,   0.01680,
,,,-00.001130000000,   0.01600,
,,,-00.001120000000,   0.01600,
,,,-00.001110000000,   0.01520,
,,,-00.001100000000,   0.01520,
,,,-00.001090000000,   0.01440,
,,,-00.001080000000,   0.01600,
,,,-00.001070000000,   0.01600,
,,,-00.001060000000,   0.01760,
,,,-00.001050000000,   0.01680,
,,,-00.001040000000,   0.01600,
,,,-00.001030000000,   0.01760,
,,,-00.001020000000,   0.01920,
,,,-00.001010000000,   0.01600,
,,,-00.001000000000,   0.01760,
,,,-00.000990000000,   0.01920,
,,,-00.000980000000,   0.01840,
,,,-00.000970000000,   0.01760,
,,,-00.000960000000,   0.01840,
,,,-00.000950000000,   0.01680,
,,,-00.000940000000,   0.01600,
,,,-00.000930000000,   0.01760,
,,,-00.000920000000,   0.01520,
,,,-00.000910000000,   0.01520,
,,,-00.000900000000,   0.01520,
,,,-00.000890000000,   0.01600,
,,,-00.000880000000,   0.01760,
,,,-00.000870000000,   0.01680,
,,,-00.000860000000,   0.01520,
,,,-00.000850000000,   0.01520,
,,,-00.000840000000,   0.01600,
,,,-00.000830000000,   0.01440,
,,,-00.000820000000,   0.01440,
,,,-00.000810000000,   0.01520,
,,,-00.000800000000,   0.01760,
,,,-00.000790000000,   0.01680,
,,,-00.000780000000,   0.01760,
,,,-00.000770000000,   0.01840,
,,,-00.000760000000,   0.01920,
,,,-00.000750000000,   0.01920,
,,,-00.000740000000,   0.01760,
,,,-00.000730000000,   0.01600,
,,,-00.000720000000,   0.01840,
,,,-00.000710000000,   0.01600,
,,,-00.000700000000,   0.01520,
,,,-00.000690000000,   0.01440,
,,,-00.000680000000,   0.01600,
,,,-00.000670000000,   0.01600,
,,,-00.000660000000,   0.01600,
,,,-00.000650000000,   0.01520,
,,,-00.000640000000,   0.01440,
,,,-00.000630000000,   0.01440,
,,,-00.000620000000,   0.01440,
,,,-00.000610000000,   0.01520,
,,,-00.000600000000,   0.01520,
,,,-00.000590000000,   0.01680,
,,,-00.000580000000,   0.01440,
,,,-00.000570000000,   0.01600,
,,,-00.000560000000,   0.01760,
,,,-00.000550000000,   0.01920,
,,,-00.000540000000,   0.01760,
,,,-00.000530000000,   0.01680,
,,,-00.000520000000,   0.01600,
,,,-00.000510000000,   0.01600,
,,,-00.000500000000,   0.01600,
,,,-00.000490000000,   0.01680,
,,,-00.000480000000,   0.01680,
,,,-00.000470000000,   0.01600,
,,,-00.000460000000,   0.01680,
,,,-00.000450000000,   0.01520,
,,,-00.000440000000,   0.01600,
,,,-00.000430000000,   0.01680,
,,,-00.000420000000,   0.01600,
,,,-00.000410000000,   0.01520,
,,,-00.000400000000,   0.01680,
,,,-00.000390000000,   0.01680,
,,,-00.000380000000,   0.01600,
,,,-00.000370000000,   0.01440,
,,,-00.000360000000,   0.01600,
,,,-00.000350000000,   0.01600,
,,,-00.000340000000,   0.01680,
,,,-00.000330000000,   0.01840,
,,,-00.000320000000,   0.01600,
,,,-00.000310000000,   0.01600,
,,,-00.000300000000,   0.01760,
,,,-00.000290000000,   0.01760,
,,,-00.000280000000,   0.01760,
,,,-00.000270000000,   0.01680,
,,,-00.000260000000,   0.01680,
,,,-00.000250000000,   0.01680,
,,,-00.000240000000,   0.01760,
,,,-00.000230000000,   0.01520,
,,,-00.000220000000,   0.01600,
,,,-00.000210000000,   0.01760,
,,,-00.000200000000,   0.01680,
,,,-00.000190000000,   0.01600,
,,,-00.000180000000,   0.01520,
,,,-00.000170000000,   0.01360,
,,,-00.000160000000,   0.01600,
,,,-00.000150000000,   0.01440,
,,,-00.000140000000,   0.01520,
,,,-00.000130000000,   0.01600,
,,,-00.000120000000,   0.01680,
,,,-00.000110000000,   0.01760,
,,,-00.000100000000,   0.02000,
,,,-00.000090000000,   0.01680,
,,,-00.000080000000,   0.01920,
,,,-00.000070000000,   0.01760,
,,,-00.000060000000,   0.01840,
,,,-00.000050000000,   0.01760,
,,,-00.000040000000,   0.01920,
,,,-00.000030000000,   0.01920,
,,,-00.000020000000,   0.01840,
,,,-00.000010000000,   0.01840,
,,,-00.000000000000,   0.01680,
,,,00.000010000000,   0.01600,
,,,00.000020000000,   0.01760,
,,,00.000030000000,   0.01600,
,,,00.000040000000,   0.01680,
,,,00.000050000000,   0.01680,
,,,00.000060000000,   0.01520,
,,,00.000070000000,   0.01600,
,,,00.000080000000,   0.01760,
,,,00.000090000000,   0.01520,
,,,00.000100000000,   0.01360,
,,,00.000110000000,   0.01520,
,,,00.000120000000,   0.01520,
,,,00.000130000000,   0.01600,
,,,00.000140000000,   0.01600,
,,,00.000150000000,   0.01760,
,,,00.000160000000,   0.01760,
,,,00.000170000000,   0.01840,
,,,00.000180000000,   0.01760,
,,,00.000190000000,   0.01920,
,,,00.000200000000,   0.01840,
,,,00.000210000000,   0.01920,
,,,00.000220000000,   0.01760,
,,,00.000230000000,   0.01600,
,,,00.000240000000,   0.01520,
,,,00.000250000000,   0.01600,
,,,00.000260000000,   0.01600,
,,,00.000270000000,   0.01920,
,,,00.000280000000,   0.01600,
,,,00.000290000000,   0.01680,
,,,00.000300000000,   0.01760,
,,,00.000310000000,   0.01600,
,,,00.000320000000,   0.01600,
,,,00.000330000000,   0.01280,
,,,00.000340000000,   0.01680,
,,,00.000350000000,   0.01520,
,,,00.000360000000,   0.01600,
,,,00.000370000000,   0.01520,
,,,00.000380000000,   0.01600,
,,,00.000390000000,   0.01840,
,,,00.000400000000,   0.01600,
,,,00.000410000000,   0.01600,
,,,00.000420000000,   0.01680,
,,,00.000430000000,   0.01680,
,,,00.000440000000,   0.01600,
,,,00.000450000000,   0.01600,
,,,00.000460000000,   0.01520,
,,,00.000470000000,   0.01680,
,,,00.000480000000,   0.01040,
,,,00.000490000000,  -0.00080,
,,,00.000500000000,  -0.00080,
,,,00.000510000000,   0.00560,
,,,00.000520000000,   0.00560,
,,,00.000530000000,   0.00560,
,,,00.000540000000,   0.00560,
,,,00.000550000000,   0.00640,
,,,00.000560000000,   0.00640,
,,,00.000570000000,   0.00640,
,,,00.000580000000,   0.00560,
,,,00.000590000000,   0.00480,
,,,00.000600000000,   0.00560,
,,,00.000610000000,   0.00560,
,,,00.000620000000,   0.00720,
,,,00.000630000000,   0.00480,
,,,00.000640000000,   0.00560,
,,,00.000650000000,   0.00560,
,,,00.000660000000,   0.00560,
,,,00.000670000000,   0.00560,
,,,00.000680000000,   0.00640,
,,,00.000690000000,   0.00560,
,,,00.000700000000,   0.00480,
,,,00.000710000000,   0.00240,
,,,00.000720000000,   0.01120,
,,,00.000730000000,   0.02400,
,,,00.000740000000,   0.03920,
,,,00.000750000000,   0.05360,
,,,00.000760000000,   0.06640,
,,,00.000770000000,   0.07440,
,,,00.000780000000,   0.08000,
,,,00.000790000000,   0.08080,
,,,00.000800000000,   0.08080,
,,,00.000810000000,   0.07520,
,,,00.000820000000,   0.06640,
,,,00.000830000000,   0.05920,
,,,00.000840000000,   0.04880,
,,,00.000850000000,   0.03680,
,,,00.000860000000,   0.02560,
,,,00.000870000000,   0.01440,
,,,00.000880000000,   0.00320,
,,,00.000890000000,  -0.00640,
,,,00.000900000000,  -0.01600,
,,,00.000910000000,  -0.02240,
,,,00.000920000000,  -0.02560,
,,,00.000930000000,  -0.02720,
,,,00.000940000000,  -0.02640,
,,,00.000950000000,  -0.02400,
,,,00.000960000000,  -0.01840,
,,,00.000970000000,  -0.01040,
,,,00.000980000000,  -0.00320,
,,,00.000990000000,   0.00480,
,,,00.001000000000,   0.01360,
,,,00.001010000000,   0.02080,
,,,00.001020000000,   0.02880,
,,,00.001030000000,   0.03440,
,,,00.001040000000,   0.03760,
,,,00.001050000000,   0.04240,
,,,00.001060000000,   0.04320,
,,,00.001070000000,   0.04160,
,,,00.001080000000,   0.04000,
,,,00.001090000000,   0.03760,
,,,00.001100000000,   0.03200,
,,,00.001110000000,   0.02880,
,,,00.001120000000,   0.02240,
,,,00.001130000000,   0.01840,
,,,00.001140000000,   0.01440,
,,,00.001150000000,   0.01040,
,,,00.001160000000,   0.00480,
,,,00.001170000000,   0.00320,
,,,00.001180000000,   0.00240,
,,,00.001190000000,   0.00160,
,,,00.001200000000,   0.00240,
,,,00.001210000000,   0.00400,
,,,00.001220000000,   0.00560,
,,,00.001230000000,   0.00640,
,,,00.001240000000,   0.01040,
,,,00.001250000000,   0.01440,
,,,00.001260000000,   0.01840,
,,,00.001270000000,   0.01920,
,,,00.001280000000,   0.02320,
,,,00.001290000000,   0.02560,
,,,00.001300000000,   0.02640,
,,,00.001310000000,   0.02320,
,,,00.001320000000,   0.02560,
,,,00.001330000000,   0.02720,
,,,00.001340000000,   0.02240,
,,,00.001350000000,   0.02080,
,,,00.001360000000,   0.01840,
,,,00.001370000000,   0.01760,
,,,00.001380000000,   0.01520,
,,,00.001390000000,   0.01120,
,,,00.001400000000,   0.01120,
,,,00.001410000000,   0.01040,
,,,00.001420000000,   0.01040,
,,,00.001430000000,   0.00800,
,,,00.001440000000,   0.00880,
,,,00.001450000000,   0.01120,
,,,00.001460000000,   0.01200,
,,,00.001470000000,   0.01120,
,,,00.001480000000,   0.01600,
,,,00.001490000000,   0.01680,
,,,00.001500000000,   0.01840,
,,,00.001510000000,   0.02160,
,,,00.001520000000,   0.02160,
,,,00.001530000000,   0.02320,
,,,00.001540000000,   0.02480,
,,,00.001550000000,   0.02240,
,,,00.001560000000,   0.02320,
,,,00.001570000000,   0.02240,
,,,00.001580000000,   0.02080,
,,,00.001590000000,   0.02080,
,,,00.001600000000,   0.01760,
,,,00.001610000000,   0.01520,
,,,00.001620000000,   0.01520,
,,,00.001630000000,   0.01440,
,,,00.001640000000,   0.01280,
,,,00.001650000000,   0.01280,
,,,00.001660000000,   0.01120,
,,,00.001670000000,   0.01200,
,,,00.001680000000,   0.01280,
,,,00.001690000000,   0.01200,
,,,00.001700000000,   0.01280,
,,,00.001710000000,   0.01200,
,,,00.001720000000,   0.01280,
,,,00.001730000000,   0.01520,
,,,00.001740000000,   0.01520,
,,,00.001750000000,   0.01680,
,,,00.001760000000,   0.01840,
,,,00.001770000000,   0.01920,
,,,00.001780000000,   0.02160,
,,,00.001790000000,   0.02080,
,,,00.001800000000,   0.02160,
,,,00.001810000000,   0.02240,
,,,00.001820000000,   0.01920,
,,,00.001830000000,   0.01920,
,,,00.001840000000,   0.01920,
,,,00.001850000000,   0.01680,
,,,00.001860000000,   0.01680,
,,,00.001870000000,   0.01760,
,,,00.001880000000,   0.01680,
,,,00.001890000000,   0.01280,
,,,00.001900000000,   0.01280,
,,,00.001910000000,   0.01120,
,,,00.001920000000,   0.01200,
,,,00.001930000000,   0.01280,
,,,00.001940000000,   0.01200,
,,,00.001950000000,   0.01280,
,,,00.001960000000,   0.01440,
,,,00.001970000000,   0.01520,
,,,00.001980000000,   0.01520,
,,,00.001990000000,   0.01600,
,,,00.002000000000,   0.01760,
,,,00.002010000000,   0.01680,
,,,00.002020000000,   0.01840,
,,,00.002030000000,   0.01920,
,,,00.002040000000,   0.02080,
,,,00.002050000000,   0.01840,
,,,00.002060000000,   0.01920,
,,,00.002070000000,   0.01600,
,,,00.002080000000,   0.01840,
,,,00.002090000000,   0.01600,
,,,00.002100000000,   0.01760,
,,,00.002110000000,   0.01520,
,,,00.002120000000,   0.01680,
,,,00.002130000000,   0.01520,
,,,00.002140000000,   0.01440,
,,,00.002150000000,   0.01600,
,,,00.002160000000,   0.01600,
,,,00.002170000000,   0.01440,
,,,00.002180000000,   0.01280,
,,,00.002190000000,   0.01280,
,,,00.002200000000,   0.01520,
,,,00.002210000000,   0.01520,
,,,00.002220000000,   0.01600,
,,,00.002230000000,   0.01600,
,,,00.002240000000,   0.01680,
,,,00.002250000000,   0.01680,
,,,00.002260000000,   0.01840,
,,,00.002270000000,   0.01840,
,,,00.002280000000,   0.01760,
,,,00.002290000000,   0.01680,
,,,00.002300000000,   0.01760,
,,,00.002310000000,   0.01680,
,,,00.002320000000,   0.01840,
,,,00.002330000000,   0.01520,
,,,00.002340000000,   0.01520,
,,,00.002350000000,   0.01600,
,,,00.002360000000,   0.01680,
,,,00.002370000000,   0.01680,
,,,00.002380000000,   0.01520,
,,,00.002390000000,   0.01280,
,,,00.002400000000,   0.01440,
,,,00.002410000000,   0.01440,
,,,00.002420000000,   0.01600,
,,,00.002430000000,   0.01360,
,,,00.002440000000,   0.01360,
,,,00.002450000000,   0.01360,
,,,00.002460000000,   0.01440,
,,,00.002470000000,   0.01440,
,,,00.002480000000,   0.00320,
,,,00.002490000000,  -0.00560,
,,,00.002500000000,  -0.00880,
,,,00.002510000000,  -0.00880,
,,,00.002520000000,   0.00000,
,,,00.002530000000,   0.00000,
,,,00.002540000000,   0.00000,
,,,00.002550000000,   0.00240,
,,,00.002560000000,   0.00080,
,,,00.002570000000,   0.00080,
,,,00.002580000000,   0.00080,
,,,00.002590000000,   0.00080,
,,,00.002600000000,   0.00160,
,,,00.002610000000,   0.00080,
,,,00.002620000000,   0.00160,
,,,00.002630000000,   0.00160,
,,,00.002640000000,   0.00000,
,,,00.002650000000,   0.00000,
,,,00.002660000000,   0.00160,
,,,00.002670000000,   0.00000,
,,,00.002680000000,   0.00080,
,,,00.002690000000,   0.00000,
,,,00.002700000000,   0.00080,
,,,00.002710000000,  -0.00080,
,,,00.002720000000,   0.00400,
,,,00.002730000000,   0.00800,
,,,00.002740000000,   0.01280,
,,,00.002750000000,   0.01600,
,,,00.002760000000,   0.02000,
,,,00.002770000000,   0.02400,
,,,00.002780000000,   0.02560,
,,,00.002790000000,   0.02720,
,,,00.002800000000,   0.02720,
,,,00.002810000000,   0.02960,
,,,00.002820000000,   0.03200,
,,,00.002830000000,   0.03120,
,,,00.002840000000,   0.03040,
,,,00.002850000000,   0.02960,
,,,00.002860000000,   0.02720,
,,,00.002870000000,   0.02560,
,,,00.002880000000,   0.02320,
,,,00.002890000000,   0.02080,
,,,00.002900000000,   0.02000,
,,,00.002910000000,   0.01840,
,,,00.002920000000,   0.01520,
,,,00.002930000000,   0.01360,
,,,00.002940000000,   0.01200,
,,,00.002950000000,   0.01280,
,,,00.002960000000,   0.01040,
,,,00.002970000000,   0.00720,
,,,00.002980000000,   0.00800,
,,,00.002990000000,   0.00800,
,,,00.003000000000,   0.00880,
,,,00.003010000000,   0.00800,
,,,00.003020000000,   0.00880,
,,,00.003030000000,   0.01200,
,,,00.003040000000,   0.01120,
,,,00.003050000000,   0.01120,
,,,00.003060000000,   0.01360,
,,,00.003070000000,   0.01360,
,,,00.003080000000,   0.01440,
,,,00.003090000000,   0.01760,
,,,00.003100000000,   0.01760,
,,,00.003110000000,   0.01920,
,,,00.003120000000,   0.01920,
,,,00.003130000000,   0.02080,
,,,00.003140000000,   0.02160,
,,,00.003150000000,   0.02080,
,,,00.003160000000,   0.02080,
,,,00.003170000000,   0.02000,
,,,00.003180000000,   0.01840,
,,,00.003190000000,   0.01920,
,,,00.003200000000,   0.02000,
,,,00.003210000000,   0.01920,
,,,00.003220000000,   0.01840,
,,,00.003230000000,   0.01600,
,,,00.003240000000,   0.01520,
,,,00.003250000000,   0.01440,
,,,00.003260000000,   0.01360,
,,,00.003270000000,   0.01280,
,,,00.003280000000,   0.01200,
,,,00.003290000000,   0.01680,
,,,00.003300000000,   0.01520,
,,,00.003310000000,   0.01520,
,,,00.003320000000,   0.01600,
,,,00.003330000000,   0.01600,
,,,00.003340000000,   0.01760,
,,,00.003350000000,   0.01760,
,,,00.003360000000,   0.01840,
,,,00.003370000000,   0.02000,
,,,00.003380000000,   0.02000,
,,,00.003390000000,   0.01840,
,,,00.003400000000,   0.01600,
,,,00.003410000000,   0.01920,
,,,00.003420000000,   0.01840,
,,,00.003430000000,   0.01920,
,,,00.003440000000,   0.01600,
