ex1_nmr/glycerin_data/TEK0041.CSV

Record Length,2.500000e+03,,  -0.001100000000,   0.01520,
Sample Interval,1.000000e-05,,  -0.001090000000,   0.01520,
Trigger Point,1.100000000000e+02,,  -0.001080000000,   0.01600,
,,,  -0.001070000000,   0.01360,
,,,  -0.001060000000,   0.01440,
,,,  -0.001050000000,   0.01440,
Source,CH2,,  -0.001040000000,   0.01520,
Vertical Units,V,,  -0.001030000000,   0.01360,
Vertical Scale,2.000000e-02,,  -0.001020000000,   0.01680,
Vertical Offset,-1.680000e-02,,  -0.001010000000,   0.01440,
Horizontal Units,s,,  -0.001000000000,   0.01600,
Horizontal Scale,2.500000e-03,,  -0.000990000000,   0.01600,
Pt Fmt,Y,,  -0.000980000000,   0.01600,
Yzero,0.000000e+00,,  -0.000970000000,   0.01680,
Probe Atten,1.000000e+00,,  -0.000960000000,   0.01680,
Model Number,TDS2014C,,  -0.000950000000,   0.01520,
Serial Number,C031616,,  -0.000940000000,   0.01520,
Firmware Version,FV:v24.26,,  -0.000930000000,   0.01200,
,,,-00.000920000000,   0.01600,
,,,-00.000910000000,   0.01680,
,,,-00.000900000000,   0.01840,
,,,-00.000890000000,   0.01520,
,,,-00.000880000000,   0.01520,
,,,-00.000870000000,   0.01600,
,,,-00.000860000000,   0.01520,
,,,-00.000850000000,   0.01440,
,,,-00.000840000000,   0.01760,
,,,-00.000830000000,   0.01600,
,,,-00.000820000000,   0.01680,
,,,-00.000810000000,   0.01600,
,,,-00.000800000000,   0.01600,
,,,-00.000790000000,   0.01440,
,,,-00.000780000000,   0.01600,
,,,-00.000770000000,   0.01440,
,,,-00.000760000000,   0.01520,
,,,-00.000750000000,   0.01280,
,,,-00.000740000000,   0.01200,
,,,-00.000730000000,   0.01520,
,,,-00.000720000000,   0.01600,
,,,-00.000710000000,   0.01360,
,,,-00.000700000000,   0.01760,
,,,-00.000690000000,   0.01520,
,,,-00.000680000000,   0.01440,
,,,-00.000670000000,   0.01440,
,,,-00.000660000000,   0.01440,
,,,-00.000650000000,   0.01600,
,,,-00.000640000000,   0.01520,
,,,-00.000630000000,   0.01520,
,,,-00.000620000000,   0.01600,
,,,-00.000610000000,   0.01600,
,,,-00.000600000000,   0.01520,
,,,-00.000590000000,   0.01440,
,,,-00.000580000000,   0.01600,
,,,-00.000570000000,   0.01520,
,,,-00.000560000000,   0.01360,
,,,-00.000550000000,   0.01440,
,,,-00.000540000000,   0.01440,
,,,-00.000530000000,   0.01760,
,,,-00.000520000000,   0.01600,
,,,-00.000510000000,   0.01920,
,,,-00.000500000000,   0.01760,
,,,-00.000490000000,   0.01600,
,,,-00.000480000000,   0.01760,
,,,-00.000470000000,   0.01600,
,,,-00.000460000000,   0.01600,
,,,-00.000450000000,   0.01600,
,,,-00.000440000000,   0.01600,
,,,-00.000430000000,   0.01520,
,,,-00.000420000000,   0.01600,
,,,-00.000410000000,   0.01440,
,,,-00.000400000000,   0.01600,
,,,-00.000390000000,   0.01520,
,,,-00.000380000000,   0.01520,
,,,-00.000370000000,   0.01360,
,,,-00.000360000000,   0.01520,
,,,-00.000350000000,   0.01520,
,,,-00.000340000000,   0.01600,
,,,-00.000330000000,   0.01440,
,,,-00.000320000000,   0.01520,
,,,-00.000310000000,   0.01440,
,,,-00.000300000000,   0.01360,
,,,-00.000290000000,   0.01440,
,,,-00.000280000000,   0.01360,
,,,-00.000270000000,   0.01360,
,,,-00.000260000000,   0.01600,
,,,-00.000250000000,   0.01440,
,,,-00.000240000000,   0.01600,
,,,-00.000230000000,   0.01520,
,,,-00.000220000000,   0.01600,
,,,-00.000210000000,   0.01440,
,,,-00.000200000000,   0.01520,
,,,-00.000190000000,   0.01520,
,,,-00.000180000000,   0.01600,
,,,-00.000170000000,   0.01600,
,,,-00.000160000000,   0.01520,
,,,-00.000150000000,   0.01600,
,,,-00.000140000000,   0.01680,
,,,-00.000130000000,   0.01680,
,,,-00.000120000000,   0.01600,
,,,-00.000110000000,   0.01520,
,,,-00.000100000000,   0.01440,
,,,-00.000090000000,   0.01520,
,,,-00.000080000000,   0.01600,
,,,-00.000070000000,   0.01680,
,,,-00.000060000000,   0.01600,
,,,-00.000050000000,   0.01360,
,,,-00.000040000000,   0.01520,
,,,-00.000030000000,   0.01520,
,,,-00.000020000000,   0.01440,
,,,-00.000010000000,   0.01600,
,,,-00.000000000000,   0.01600,
,,,00.000010000000,   0.01520,
,,,00.000020000000,   0.01520,
,,,00.000030000000,   0.01440,
,,,00.000040000000,   0.01600,
,,,00.000050000000,   0.01520,
,,,00.000060000000,   0.01360,
,,,00.000070000000,   0.01600,
,,,00.000080000000,   0.01520,
,,,00.000090000000,   0.01520,
,,,00.000100000000,   0.01600,
,,,00.000110000000,   0.01600,
,,,00.000120000000,   0.01600,
,,,00.000130000000,   0.01600,
,,,00.000140000000,   0.01600,
,,,00.000150000000,   0.01520,
,,,00.000160000000,   0.01680,
,,,00.000170000000,   0.01600,
,,,00.000180000000,   0.01680,
,,,00.000190000000,   0.01360,
,,,00.000200000000,   0.01440,
,,,00.000210000000,   0.01440,
,,,00.000220000000,   0.01440,
,,,00.000230000000,   0.01520,
,,,00.000240000000,   0.01360,
,,,00.000250000000,   0.01440,
,,,00.000260000000,   0.01600,
,,,00.000270000000,   0.01600,
,,,00.000280000000,   0.01440,
,,,00.000290000000,   0.01520,
,,,00.000300000000,   0.01440,
,,,00.000310000000,   0.01360,
,,,00.000320000000,   0.01440,
,,,00.000330000000,   0.01600,
,,,00.000340000000,   0.01440,
,,,00.000350000000,   0.01520,
,,,00.000360000000,   0.01680,
,,,00.000370000000,   0.01520,
,,,00.000380000000,   0.01440,
,,,00.000390000000,   0.01440,
,,,00.000400000000,   0.01440,
,,,00.000410000000,   0.01520,
,,,00.000420000000,   0.01440,
,,,00.000430000000,   0.01440,
,,,00.000440000000,   0.01520,
,,,00.000450000000,   0.01440,
,,,00.000460000000,   0.01600,
,,,00.000470000000,   0.01440,
,,,00.000480000000,   0.00480,
,,,00.000490000000,  -0.00160,
,,,00.000500000000,  -0.00160,
,,,00.000510000000,   0.00160,
,,,00.000520000000,   0.00240,
,,,00.000530000000,   0.00240,
,,,00.000540000000,   0.00080,
,,,00.000550000000,   0.00000,
,,,00.000560000000,   0.00160,
,,,00.000570000000,   0.00160,
,,,00.000580000000,   0.00080,
,,,00.000590000000,   0.00080,
,,,00.000600000000,   0.00240,
,,,00.000610000000,   0.00160,
,,,00.000620000000,   0.00160,
,,,00.000630000000,   0.00000,
,,,00.000640000000,   0.00080,
,,,00.000650000000,   0.00000,
,,,00.000660000000,   0.00080,
,,,00.000670000000,   0.00160,
,,,00.000680000000,   0.00240,
,,,00.000690000000,   0.00080,
,,,00.000700000000,   0.00480,
,,,00.000710000000,   0.01680,
,,,00.000720000000,   0.03440,
,,,00.000730000000,   0.04720,
,,,00.000740000000,   0.06000,
,,,00.000750000000,   0.07120,
,,,00.000760000000,   0.07840,
,,,00.000770000000,   0.08240,
,,,00.000780000000,   0.08240,
,,,00.000790000000,   0.07840,
,,,00.000800000000,   0.07200,
,,,00.000810000000,   0.06400,
,,,00.000820000000,   0.05280,
,,,00.000830000000,   0.04000,
,,,00.000840000000,   0.02640,
,,,00.000850000000,   0.01360,
,,,00.000860000000,   0.00480,
,,,00.000870000000,  -0.00800,
,,,00.000880000000,  -0.01760,
,,,00.000890000000,  -0.02480,
,,,00.000900000000,  -0.03040,
,,,00.000910000000,  -0.03120,
,,,00.000920000000,  -0.02800,
,,,00.000930000000,  -0.02720,
,,,00.000940000000,  -0.02160,
,,,00.000950000000,  -0.01360,
,,,00.000960000000,  -0.00560,
,,,00.000970000000,   0.00240,
,,,00.000980000000,   0.01120,
,,,00.000990000000,   0.02080,
,,,00.001000000000,   0.02800,
,,,00.001010000000,   0.03360,
,,,00.001020000000,   0.04000,
,,,00.001030000000,   0.04240,
,,,00.001040000000,   0.04560,
,,,00.001050000000,   0.04320,
,,,00.001060000000,   0.04000,
,,,00.001070000000,   0.03840,
,,,00.001080000000,   0.03280,
,,,00.001090000000,   0.02720,
,,,00.001100000000,   0.02160,
,,,00.001110000000,   0.01360,
,,,00.001120000000,   0.01040,
,,,00.001130000000,   0.00560,
,,,00.001140000000,   0.00400,
,,,00.001150000000,  -0.00080,
,,,00.001160000000,  -0.00160,
,,,00.001170000000,  -0.00160,
,,,00.001180000000,  -0.00320,
,,,00.001190000000,   0.00000,
,,,00.001200000000,   0.00160,
,,,00.001210000000,   0.00640,
,,,00.001220000000,   0.00880,
,,,00.001230000000,   0.01360,
,,,00.001240000000,   0.01920,
,,,00.001250000000,   0.02000,
,,,00.001260000000,   0.02320,
,,,00.001270000000,   0.02640,
,,,00.001280000000,   0.02240,
,,,00.001290000000,   0.02640,
,,,00.001300000000,   0.02560,
,,,00.001310000000,   0.02400,
,,,00.001320000000,   0.02240,
,,,00.001330000000,   0.02000,
,,,00.001340000000,   0.01600,
,,,00.001350000000,   0.01360,
,,,00.001360000000,   0.01120,
,,,00.001370000000,   0.00800,
,,,00.001380000000,   0.00720,
,,,00.001390000000,   0.00560,
,,,00.001400000000,   0.00560,
,,,00.001410000000,   0.00800,
,,,00.001420000000,   0.00720,
,,,00.001430000000,   0.00960,
,,,00.001440000000,   0.01120,
,,,00.001450000000,   0.01360,
,,,00.001460000000,   0.01120,
,,,00.001470000000,   0.01440,
,,,00.001480000000,   0.01920,
,,,00.001490000000,   0.01920,
,,,00.001500000000,   0.02400,
,,,00.001510000000,   0.02240,
,,,00.001520000000,   0.02320,
,,,00.001530000000,   0.02320,
,,,00.001540000000,   0.02240,
,,,00.001550000000,   0.02080,
,,,00.001560000000,   0.01920,
,,,00.001570000000,   0.01600,
,,,00.001580000000,   0.01440,
,,,00.001590000000,   0.01200,
,,,00.001600000000,   0.01120,
,,,00.001610000000,   0.01120,
,,,00.001620000000,   0.00960,
,,,00.001630000000,   0.00800,
,,,00.001640000000,   0.00800,
,,,00.001650000000,   0.00880,
,,,00.001660000000,   0.00800,
,,,00.001670000000,   0.00800,
,,,00.001680000000,   0.01040,
,,,00.001690000000,   0.01200,
,,,00.001700000000,   0.01360,
,,,00.001710000000,   0.01520,
,,,00.001720000000,   0.01760,
,,,00.001730000000,   0.02000,
,,,00.001740000000,   0.02240,
,,,00.001750000000,   0.01920,
,,,00.001760000000,   0.02240,
,,,00.001770000000,   0.02080,
,,,00.001780000000,   0.01920,
,,,00.001790000000,   0.02080,
,,,00.001800000000,   0.02080,
,,,00.001810000000,   0.01840,
,,,00.001820000000,   0.01600,
,,,00.001830000000,   0.01520,
,,,00.001840000000,   0.01200,
,,,00.001850000000,   0.01120,
,,,00.001860000000,   0.01040,
,,,00.001870000000,   0.01040,
,,,00.001880000000,   0.00720,
,,,00.001890000000,   0.00720,
,,,00.001900000000,   0.00960,
,,,00.001910000000,   0.01040,
,,,00.001920000000,   0.01120,
,,,00.001930000000,   0.01280,
,,,00.001940000000,   0.01440,
,,,00.001950000000,   0.01280,
,,,00.001960000000,   0.01440,
,,,00.001970000000,   0.01760,
,,,00.001980000000,   0.01920,
,,,00.001990000000,   0.01920,
,,,00.002000000000,   0.02080,
,,,00.002010000000,   0.02000,
,,,00.002020000000,   0.01840,
,,,00.002030000000,   0.01920,
,,,00.002040000000,   0.01840,
,,,00.002050000000,   0.01920,
,,,00.002060000000,   0.01680,
,,,00.002070000000,   0.01520,
,,,00.002080000000,   0.01280,
,,,00.002090000000,   0.01200,
,,,00.002100000000,   0.01120,
,,,00.002110000000,   0.01200,
,,,00.002120000000,   0.01120,
,,,00.002130000000,   0.00960,
,,,00.002140000000,   0.01120,
,,,00.002150000000,   0.01200,
,,,00.002160000000,   0.00880,
,,,00.002170000000,   0.01440,
,,,00.002180000000,   0.01360,
,,,00.002190000000,   0.01120,
,,,00.002200000000,   0.01360,
,,,00.002210000000,   0.01760,
,,,00.002220000000,   0.01440,
,,,00.002230000000,   0.01760,
,,,00.002240000000,   0.01920,
,,,00.002250000000,   0.01760,
,,,00.002260000000,   0.01680,
,,,00.002270000000,   0.01760,
,,,00.002280000000,   0.01840,
,,,00.002290000000,   0.01600,
,,,00.002300000000,   0.01760,
,,,00.002310000000,   0.01520,
,,,00.002320000000,   0.01360,
,,,00.002330000000,   0.01280,
,,,00.002340000000,   0.01200,
,,,00.002350000000,   0.01280,
,,,00.002360000000,   0.01360,
,,,00.002370000000,   0.01280,
,,,00.002380000000,   0.01120,
,,,00.002390000000,   0.01280,
,,,00.002400000000,   0.01280,
,,,00.002410000000,   0.01280,
,,,00.002420000000,   0.01120,
,,,00.002430000000,   0.01280,
,,,00.002440000000,   0.01280,
,,,00.002450000000,   0.01360,
,,,00.002460000000,   0.01120,
,,,00.002470000000,   0.01120,
,,,00.002480000000,  -0.00080,
,,,00.002490000000,  -0.00960,
,,,00.002500000000,  -0.00960,
,,,00.002510000000,  -0.00800,
,,,00.002520000000,  -0.00320,
,,,00.002530000000,  -0.00400,
,,,00.002540000000,  -0.00400,
,,,00.002550000000,  -0.00480,
,,,00.002560000000,  -0.00320,
,,,00.002570000000,  -0.00320,
,,,00.002580000000,  -0.00400,
,,,00.002590000000,  -0.00480,
,,,00.002600000000,  -0.00400,
,,,00.002610000000,  -0.00320,
,,,00.002620000000,  -0.00400,
,,,00.002630000000,  -0.00320,
,,,00.002640000000,  -0.00400,
,,,00.002650000000,  -0.00240,
,,,00.002660000000,  -0.00320,
,,,00.002670000000,  -0.00240,
,,,00.002680000000,  -0.00400,
,,,00.002690000000,  -0.00320,
,,,00.002700000000,  -0.00400,
,,,00.002710000000,  -0.00080,
,,,00.002720000000,   0.00800,
,,,00.002730000000,   0.01440,
,,,00.002740000000,   0.01680,
,,,00.002750000000,   0.02160,
,,,00.002760000000,   0.02480,
,,,00.002770000000,   0.02720,
,,,00.002780000000,   0.02800,
,,,00.002790000000,   0.02960,
,,,00.002800000000,   0.02800,
,,,00.002810000000,   0.02880,
,,,00.002820000000,   0.02800,
,,,00.002830000000,   0.02560,
,,,00.002840000000,   0.02560,
,,,00.002850000000,   0.02240,
,,,00.002860000000,   0.02160,
,,,00.002870000000,   0.01840,
,,,00.002880000000,   0.01520,
,,,00.002890000000,   0.01680,
,,,00.002900000000,   0.01360,
,,,00.002910000000,   0.01120,
,,,00.002920000000,   0.01120,
,,,00.002930000000,   0.01040,
,,,00.002940000000,   0.01040,
,,,00.002950000000,   0.00880,
,,,00.002960000000,   0.00800,
,,,00.002970000000,   0.00800,
,,,00.002980000000,   0.00720,
,,,00.002990000000,   0.00880,
,,,00.003000000000,   0.01040,
,,,00.003010000000,   0.01040,
,,,00.003020000000,   0.01040,
,,,00.003030000000,   0.01120,
,,,00.003040000000,   0.01040,
,,,00.003050000000,   0.01200,
,,,00.003060000000,   0.01280,
,,,00.003070000000,   0.01200,
,,,00.003080000000,   0.01440,
,,,00.003090000000,   0.01760,
,,,00.003100000000,   0.01760,
,,,00.003110000000,   0.01840,
,,,00.003120000000,   0.01920,
,,,00.003130000000,   0.02000,
,,,00.003140000000,   0.02080,
,,,00.003150000000,   0.01920,
,,,00.003160000000,   0.02160,
,,,00.003170000000,   0.02080,
,,,00.003180000000,   0.02160,
,,,00.003190000000,   0.02000,
,,,00.003200000000,   0.01920,
,,,00.003210000000,   0.01840,
,,,00.003220000000,   0.01760,
,,,00.003230000000,   0.01600,
,,,00.003240000000,   0.01440,
,,,00.003250000000,   0.01280,
,,,00.003260000000,   0.01120,
,,,00.003270000000,   0.01120,
,,,00.003280000000,   0.01040,
,,,00.003290000000,   0.00960,
,,,00.003300000000,   0.00960,
,,,00.003310000000,   0.00960,
,,,00.003320000000,   0.01040,
,,,00.003330000000,   0.00960,
,,,00.003340000000,   0.01120,
,,,00.003350000000,   0.01280,
,,,00.003360000000,   0.01360,
,,,00.003370000000,   0.01520,
,,,00.003380000000,   0.01760,
,,,00.003390000000,   0.01760,
,,,00.003400000000,   0.01760,
,,,00.003410000000,   0.01840,
,,,00.003420000000,   0.01920,
,,,00.003430000000,   0.01840,
,,,00.003440000000,   0.01760,
,,,00.003450000000,   0.01680,
,,,00.003460000000,   0.01840,
,,,00.003470000000,   0.01600,
,,,00.003480000000,   0.01360,
,,,00.003490000000,   0.01360,
,,,00.003500000000,   0.01120,
,,,00.003510000000,   0.01120,
,,,00.003520000000,   0.01120,
,,,00.003530000000,   0.01200,
,,,00.003540000000,   0.01280,
,,,00.003550000000,   0.01280,
,,,00.003560000000,   0.01360,
,,,00.003570000000,   0.01360,
,,,00.003580000000,   0.01600,
,,,00.003590000000,   0.01920,
,,,00.003600000000,   0.01920,
,,,00.003610000000,   0.01920,
,,,00.003620000000,   0.02160,
,,,00.003630000000,   0.02160,
,,,00.003640000000,   0.02160,
,,,00.003650000000,   0.01920,
,,,00.003660000000,   0.01840,
,,,00.003670000000,   0.01840,
,,,00.003680000000,   0.01440,
,,,00.003690000000,   0.01200,
,,,00.003700000000,   0.01200,
,,,00.003710000000,   0.00640,
,,,00.003720000000,   0.00480,
,,,00.003730000000,   0.00400,
,,,00.003740000000,   0.00480,
,,,00.003750000000,   0.00320,
,,,00.003760000000,   0.00240,
,,,00.003770000000,   0.00480,
,,,00.003780000000,   0.00720,
,,,00.003790000000,   0.01040,
,,,00.003800000000,   0.01360,
,,,00.003810000000,   0.01680,
,,,00.003820000000,   0.02160,
,,,00.003830000000,   0.02560,
,,,00.003840000000,   0.02960,
,,,00.003850000000,   0.03040,
,,,00.003860000000,   0.03280,
,,,00.003870000000,   0.03440,
,,,00.003880000000,   0.03520,
,,,00.003890000000,   0.03280,
,,,00.003900000000,   0.03200,
,,,00.003910000000,   0.02880,
,,,00.003920000000,   0.02320,
,,,00.003930000000,   0.01920,
,,,00.003940000000,   0.01200,
,,,00.003950000000,   0.00720,
,,,00.003960000000,   0.00240,
,,,00.003970000000,  -0.00400,
,,,00.003980000000,  -0.01040,
,,,00.003990000000,  -0.01360,
,,,00.004000000000,  -0.01680,
,,,00.004010000000,  -0.01680,
,,,00.004020000000,  -0.01680,
,,,00.004030000000,  -0.01280,
,,,00.004040000000,  -0.00560,
,,,00.004050000000,   0.00080,
,,,00.004060000000,   0.00720,
,,,00.004070000000,   0.01600,
,,,00.004080000000,   0.02720,
,,,00.004090000000,   0.03520,
,,,00.004100000000,   0.04080,
,,,00.004110000000,   0.04880,
,,,00.004120000000,   0.05440,
,,,00.004130000000,   0.05760,
,,,00.004140000000,   0.05840,
,,,00.004150000000,   0.05680,
,,,00.004160000000,   0.05360,
,,,00.004170000000,   0.04960,
,,,00.004180000000,   0.04160,
,,,00.004190000000,   0.03280,
,,,00.004200000000,   0.02080,
,,,00.004210000000,   0.00880,
,,,00.004220000000,  -0.00160,
,,,00.004230000000,  -0.01360,
,,,00.004240000000,  -0.02640,
,,,00.004250000000,  -0.03520,
,,,00.004260000000,  -0.04480,
,,,00.004270000000,  -0.04880,
,,,00.004280000000,  -0.05040,
,,,00.004290000000,  -0.04880,
,,,00.004300000000,  -0.04240,
,,,00.004310000000,  -0.03040,
,,,00.004320000000,  -0.01840,
,,,00.004330000000,  -0.00240,
,,,00.004340000000,   0.01760,
,,,00.004350000000,   0.03680,
,,,00.004360000000,   0.05680,
,,,00.004370000000,   0.07440,
,,,00.004380000000,   0.08960,
,,,00.004390000000,   0.09920,
,,,00.004400000000,   0.10480,
,,,00.004410000000,   0.10400,
,,,00.004420000000,   0.09920,
,,,00.004430000000,   0.08800,
,,,00.004440000000,   0.07040,
,,,00.004450000000,   0.04960,
,,,00.004460000000,   0.02320,
,,,00.004470000000,  -0.00080,
,,,00.004480000000,  -0.02480,
,,,00.004490000000,  -0.04640,
,,,00.004500000000,  -0.06480,
,,,00.004510000000,  -0.07680,
,,,00.004520000000,  -0.08400,
,,,00.004530000000,  -0.08240,
,,,00.004540000000,  -0.07600,
,,,00.004550000000,  -0.06480,
,,,00.004560000000,  -0.04640,
,,,00.004570000000,  -0.02800,
,,,00.004580000000,  -0.00240,
,,,00.004590000000,   0.02160,
,,,00.004600000000,   0.04240,
,,,00.004610000000,   0.06400,
,,,00.004620000000,   0.07920,
,,,00.004630000000,   0.09040,
,,,00.004640000000,   0.09520,
,,,00.004650000000,   0.09600,
,,,00.004660000000,   0.09040,
,,,00.004670000000,   0.08320,
,,,00.004680000000,   0.07040,
,,,00.004690000000,   0.05680,
,,,00.004700000000,   0.04080,
,,,00.004710000000,   0.02400,
,,,00.004720000000,   0.00800,
,,,00.004730000000,  -0.00720,
,,,00.004740000000,  -0.01920,
,,,00.004750000000,  -0.02720,
,,,00.004760000000,  -0.03520,
,,,00.004770000000,  -0.03840,
,,,00.004780000000,  -0.03920,
,,,00.004790000000,  -0.03760,
,,,00.004800000000,  -0.03360,
,,,00.004810000000,  -0.02800,
,,,00.004820000000,  -0.01680,
,,,00.004830000000,  -0.00880,
,,,00.004840000000,   0.00240,
,,,00.004850000000,   0.01120,
,,,00.004860000000,   0.02160,
,,,00.004870000000,   0.03200,
,,,00.004880000000,   0.04000,
,,,00.004890000000,   0.04640,
,,,00.004900000000,   0.04960,
,,,00.004910000000,   0.05280,
,,,00.004920000000,   0.05200,
,,,00.004930000000,   0.04800,
,,,00.004940000000,   0.04720,
,,,00.004950000000,   0.04240,
,,,00.004960000000,   0.03520,
,,,00.004970000000,   0.02960,
,,,00.004980000000,   0.02160,
,,,00.004990000000,   0.01200,
,,,00.005000000000,   0.00560,
,,,00.005010000000,   0.00000,
,,,00.005020000000,  -0.00560,
,,,00.005030000000,  -0.00800,
,,,00.005040000000,  -0.01120,
,,,00.005050000000,  -0.01120,
,,,00.005060000000,  -0.00960,
,,,00.005070000000,  -0.00720,
,,,00.005080000000,  -0.00240,
,,,00.005090000000,  -0.00080,
,,,00.005100000000,   0.00560,
,,,00.005110000000,   0.01200,
,,,00.005120000000,   0.01600,
,,,00.005130000000,   0.01920,
,,,00.005140000000,   0.02320,
,,,00.005150000000,   0.02720,
,,,00.005160000000,   0.02960,
,,,00.005170000000,   0.02960,
,,,00.005180000000,   0.02960,
,,,00.005190000000,   0.02960,
